0 0.0434375 0.0605 0.0678125 0.0726875 0.078375 0.0840625 0.088125 0.091375 0.094625 0.0970625 0.0995 0.101938 0.103563 0.105188 0.106813 0.108438 0.110063 0.111688 0.113313 0.114938 0.116563 0.118188 0.119813 0.121438 0.123063 0.124688 0.126312 0.127937 0.129562 0.131188 0.132812 0.134437 0.136063 0.137688 0.139313 0.140937 0.142562 0.144187 0.145813 0.147437 0.149062 0.150688 0.152313 0.153938 0.155562 0.157188 0.158813 0.160438 0.162062 0.163687 0.165313 0.166938 0.168563 0.170187 0.171813 0.173438 0.175063 0.176687 0.178312 0.179938 0.181563 0.183188 0.184812 0.186438 0.188063 0.189688 0.191312 0.192938 0.194563 0.196188 0.197813 0.199437 0.201063 0.202688 0.204313 0.205938 0.207563 0.209188 0.210813 0.212438 0.214063 0.215688 0.217313 0.218938 0.220563 0.222188 0.223813 0.225438 0.227063 0.228688 0.230313 0.231938 0.233563 0.235188 0.236813 0.238438 0.240063 0.241688 0.243313 0.244938 0.246563 0.248188 0.249813 0.251438 0.253063 0.254688 0.256313 0.257938 0.259563 0.261188 0.262813 0.264438 0.266063 0.267688 0.269313 0.270938 0.272563 0.274188 0.275813 0.277438 0.279063 0.280688 0.282313 0.283938 0.285563 0.287188 0.288813 0.290438 0.292063 0.293688 0.295313 0.296938 0.298563 0.300188 0.301813 0.303438 0.305063 0.306688 0.308313 0.309938 0.311563 0.313188 0.314813 0.316438 0.318063 0.319688 0.321313 0.322938 0.324563 0.326188 0.327813 0.329438 0.331063 0.332688 0.334313 0.335938 0.337563 0.339188 0.340813 0.342438 0.344875 0.347313 0.348938 0.350563 0.353 0.35625 0.3595 0.36275 0.366813 0.370063 0.3725 0.377375 0.400938
0 0.0227476 0.0197578 0.0184764 0.0176222 0.0166256 0.0156319 0.0149318 0.0143759 0.0138328 0.0134236 0.0130213 0.0126204 0.0123555 0.0120899 0.0118254 0.0115643 0.011305 0.0110468 0.0107909 0.0105344 0.0102816 0.0100307 0.00978007 0.00952909 0.00927777 0.00902935 0.00877628 0.00852313 0.00826799 0.00801353 0.00775588 0.00750243 0.00724805 0.00699293 0.00673745 0.0064822 0.00622851 0.00597466 0.00572104 0.00546768 0.00519916 0.00485564 0.004352 0.00393599 0.00350866 0.00314444 0.00274628 0.00237822 0.0019095 0.00154897 0.00127879 0.00110506 0.000963458 0.000849128 0.000682084 0.000516799 0.000287137 0.000214516 6.7978e-05 2.4851e-05 -2.32495e-05 -0.00018471 -0.000386988 -0.000509702 -0.000512322 -0.000481759 -0.000498631 -0.000378015 -0.000292216 -0.000215099 -0.000198661 -0.000126322 -0.000167625 -0.000356772 -0.00047912 -0.000557584 -0.000805843 -0.00118238 -0.00169918 -0.00207982 -0.00241885 -0.0027143 -0.00295402 -0.00317789 -0.00342522 -0.00363347 -0.00381612 -0.00387481 -0.00396319 -0.00410213 -0.00423669 -0.00435193 -0.00452173 -0.00476957 -0.00490971 -0.00499386 -0.00510514 -0.00521389 -0.00528612 -0.00543234 -0.00560929 -0.00579645 -0.00581281 -0.00589592 -0.00600148 -0.00609537 -0.00615444 -0.00624321 -0.00628403 -0.0063149 -0.00633381 -0.00642486 -0.00661869 -0.00674475 -0.00686706 -0.0070655 -0.00718645 -0.0072595 -0.007405 -0.00753447 -0.0080429 -0.0084095 -0.00872128 -0.00912556 -0.00944166 -0.00984493 -0.0102129 -0.0104681 -0.0108452 -0.0107963 -0.0107983 -0.0108788 -0.0108826 -0.0109133 -0.0110479 -0.0111824 -0.011317 -0.0114515 -0.0115861 -0.0117206 -0.0118552 -0.0119897 -0.0121243 -0.0122588 -0.0123934 -0.0125279 -0.0126629 -0.0127994 -0.0129371 -0.0130798 -0.0132202 -0.0133694 -0.0135204 -0.0136739 -0.0138273 -0.0139847 -0.0141416 -0.0142988 -0.0144526 -0.0146048 -0.0148274 -0.0150426 -0.0151778 -0.0153067 -0.0155111 -0.0157622 -0.0159993 -0.0162319 -0.0164647 -0.0166205 -0.0167373 -0.016971 -0.0181003
0 0.00125 0.0028125 0.0034375 0.0040625 0.0046875 0.0053125 0.0059375 0.0065625 0.0071875 0.0078125 0.0084375 0.0090625 0.0096875 0.0103125 0.0109375 0.0115625 0.0121875 0.0128125 0.0134375 0.0140625 0.0146875 0.0153125 0.0159375 0.016875 0.0184375 0.0196875 0.026875
0 -0.0169597 -0.0135697 -0.0122137 -0.0108578 -0.00953257 -0.00817515 -0.00679792 -0.00553307 -0.00469769 -0.00374743 -0.00262764 -0.00176904 -0.00151656 -0.000963901 0.000343809 0.00306371 0.00625348 0.0103033 0.0147626 0.0188865 0.0222245 0.0255753 0.0296803 0.0349108 0.0420068 0.0454876 0.0655018
1 0.0475 0.0645625 0.075125 0.081625 0.08975 0.0970625 0.101125 0.103563 0.105188 0.106813 0.10925 0.111688 0.113313 0.114938 0.117375 0.119813 0.121438 0.123063 0.124688 0.126312 0.127937 0.129562 0.131188 0.132812 0.134437 0.136063 0.137688 0.139313 0.140937 0.142562 0.144187 0.145813 0.147437 0.149062 0.150688 0.152313 0.153938 0.155562 0.157188 0.158813 0.160438 0.162062 0.163687 0.165313 0.166938 0.168563 0.170187 0.171813 0.173438 0.175063 0.176687 0.178312 0.179938 0.181563 0.183188 0.184812 0.186438 0.188063 0.189688 0.191312 0.192938 0.194563 0.196188 0.197813 0.199437 0.201063 0.202688 0.204313 0.205938 0.207563 0.209188 0.210813 0.212438 0.214063 0.215688 0.217313 0.218938 0.220563 0.222188 0.223813 0.225438 0.227063 0.228688 0.230313 0.231938 0.233563 0.235188 0.236813 0.238438 0.240063 0.241688 0.243313 0.244938 0.246563 0.248188 0.249813 0.251438 0.253063 0.254688 0.256313 0.257938 0.259563 0.261188 0.262813 0.264438 0.266063 0.267688 0.269313 0.270938 0.272563 0.274188 0.275813 0.277438 0.279063 0.280688 0.282313 0.283938 0.285563 0.287188 0.288813 0.290438 0.292063 0.293688 0.295313 0.296938 0.298563 0.300188 0.301813 0.303438 0.305063 0.306688 0.308313 0.309938 0.311563 0.313188 0.314813 0.316438 0.318063 0.319688 0.321313 0.322938 0.324563 0.326188 0.327813 0.329438 0.331063 0.332688 0.334313 0.335938 0.337563 0.339188 0.340813 0.342438 0.344063 0.345688 0.347313 0.348938 0.350563 0.352188 0.353813 0.355438 0.357063 0.358688 0.360313 0.361938 0.363563 0.365188 0.366813 0.368438 0.370063 0.371688 0.373313 0.374938 0.377375 0.380625 0.383063 0.384688 0.386313 0.387938 0.389563 0.392 0.394438 0.396875 0.399313 0.40175 0.405 0.409062 0.41475 0.442375
1 0.0669585 0.059646 0.0551192 0.0523335 0.0488513 0.0457174 0.0439763 0.0429317 0.0422353 0.0415388 0.0404942 0.0394496 0.0387531 0.0380567 0.037012 0.0359674 0.035271 0.0345746 0.0338782 0.0331819 0.0324857 0.0317881 0.031091 0.0303928 0.0296953 0.0289989 0.0283024 0.0276057 0.026909 0.0262115 0.0255091 0.0248092 0.024109 0.0234085 0.022709 0.0220072 0.0213032 0.0205988 0.0198942 0.0191899 0.0184843 0.0177847 0.0170817 0.0163836 0.0156873 0.0150055 0.0142889 0.0135998 0.0129424 0.0122619 0.0115977 0.01089 0.0102356 0.00964578 0.00912482 0.00858194 0.00806672 0.0075551 0.00694818 0.00633542 0.00580342 0.00528136 0.00482191 0.00420817 0.00359416 0.00301032 0.00242689 0.00184428 0.00127729 0.000855677 0.000425577 2.82908e-05 -0.000386897 -0.000697227 -0.000958818 -0.00132116 -0.00166377 -0.00198828 -0.00227578 -0.00252611 -0.00283803 -0.00314726 -0.00355968 -0.00398552 -0.00447102 -0.00493279 -0.0052973 -0.00570238 -0.00606231 -0.00641691 -0.00668427 -0.00699975 -0.00727372 -0.00743984 -0.00755804 -0.00769327 -0.00783852 -0.00793356 -0.00806753 -0.00824804 -0.00846782 -0.00877498 -0.00906264 -0.00927945 -0.00947122 -0.00969034 -0.00991008 -0.0101904 -0.0104898 -0.0108126 -0.0110786 -0.0113365 -0.0115199 -0.0117264 -0.0119509 -0.0122145 -0.0124987 -0.0126881 -0.012706 -0.0128234 -0.0129435 -0.0130127 -0.0131845 -0.0133014 -0.0134126 -0.0137608 -0.014137 -0.0144401 -0.0147931 -0.0152243 -0.0156125 -0.0159488 -0.0162153 -0.0163564 -0.0165608 -0.0166839 -0.0165926 -0.0164947 -0.0164558 -0.0163726 -0.0162908 -0.0161827 -0.0160579 -0.0160473 -0.0160507 -0.0160397 -0.0160788 -0.0161654 -0.016252 -0.0163386 -0.0164251 -0.0165117 -0.0165983 -0.0166849 -0.0167715 -0.0168581 -0.0169449 -0.0170318 -0.0171189 -0.0172063 -0.0172947 -0.017386 -0.0174766 -0.0175658 -0.0176574 -0.0177484 -0.0178407 -0.0179329 -0.0180246 -0.0181139 -0.0182021 -0.0182901 -0.0183762 -0.0185062 -0.0186722 -0.0187922 -0.018869 -0.0189422 -0.0190146 -0.0190801 -0.0191823 -0.0192768 -0.0193598 -0.0194356 -0.0194878 -0.0195574 -0.0196444 -0.0197663 -0.020358
1 0.0021875 0.0034375 0.0040625 0.0046875 0.0053125 0.0059375 0.0065625 0.0071875 0.0078125 0.0084375 0.0090625 0.0096875 0.0103125 0.0109375 0.0115625 0.0121875 0.0128125 0.0134375 0.0140625 0.0146875 0.0153125 0.0159375 0.0165625 0.0171875 0.0178125 0.0184375 0.0190625 0.02 0.02125 0.0234375 0.0265625 0.0321875 0.0540625
1 -0.0357013 -0.029448 -0.0263214 -0.0231569 -0.0199547 -0.0166797 -0.0135084 -0.0103961 -0.00751081 -0.00434436 -0.00117617 0.00167954 0.00425424 0.00711465 0.0103294 0.013345 0.0164649 0.0187488 0.0197042 0.0200869 0.0207579 0.0207316 0.0220158 0.0235367 0.024461 0.0241007 0.0213417 0.0183223 0.01668 0.016668 0.0139661 0.0319513 0.101894
2 0.036125 0.0548125 0.0629375 0.07025 0.0735 0.078375 0.0824375 0.084875 0.088125 0.0905625 0.093 0.0954375 0.0970625 0.0995 0.101938 0.103563 0.106 0.10925 0.111688 0.113313 0.11575 0.118188 0.119813 0.121438 0.123875 0.126312 0.127937 0.129562 0.131188 0.132812 0.134437 0.136063 0.137688 0.139313 0.140937 0.142562 0.144187 0.145813 0.147437 0.149062 0.150688 0.152313 0.153938 0.155562 0.157188 0.158813 0.160438 0.162062 0.163687 0.165313 0.166938 0.168563 0.170187 0.171813 0.173438 0.175063 0.176687 0.178312 0.179938 0.181563 0.183188 0.184812 0.186438 0.188063 0.189688 0.191312 0.192938 0.194563 0.196188 0.197813 0.199437 0.201063 0.202688 0.204313 0.205938 0.207563 0.209188 0.210813 0.212438 0.214063 0.215688 0.218125 0.220563 0.222188 0.223813 0.225438 0.227063 0.228688 0.230313 0.231938 0.233563 0.235188 0.236813 0.238438 0.240063 0.241688 0.243313 0.244938 0.246563 0.248188 0.249813 0.251438 0.253063 0.254688 0.256313 0.25875 0.262 0.264438 0.266875 0.270125 0.273375 0.27825 0.285563 0.298563 0.31725
2 -0.0416581 -0.0350545 -0.0321834 -0.0295994 -0.0284335 -0.0267024 -0.0252204 -0.0241916 -0.0228752 -0.0218783 -0.020879 -0.0198983 -0.0192418 -0.0182511 -0.0172464 -0.0163879 -0.0151028 -0.0132172 -0.011984 -0.011113 -0.00987438 -0.00891941 -0.00853616 -0.008237 -0.00776067 -0.00727742 -0.00696733 -0.00673815 -0.00635218 -0.00607529 -0.00602732 -0.00590267 -0.00446753 -0.00330943 -0.00216796 -0.0010827 3.6244e-05 0.00102795 0.00136679 0.000806498 0.000164012 -0.000285219 -0.000980927 -0.00175529 -0.00222488 -0.00220914 -0.00228093 -0.00222662 -0.0022414 -0.00231898 -0.0022476 -0.00229306 -0.00242527 -0.00246828 -0.00257835 -0.00253415 -0.00260036 -0.00261087 -0.00264053 -0.00279854 -0.0028806 -0.00314327 -0.00341072 -0.00367248 -0.00400747 -0.0044721 -0.00492562 -0.00544753 -0.00592642 -0.006304 -0.00672795 -0.00723052 -0.00783783 -0.00850347 -0.00902746 -0.00937248 -0.00949528 -0.00972075 -0.00989288 -0.010054 -0.00991439 -0.0104418 -0.0109742 -0.011152 -0.0114204 -0.0116083 -0.01172 -0.0117734 -0.0119483 -0.0122696 -0.0125908 -0.012912 -0.0132333 -0.0135545 -0.0138757 -0.014197 -0.0145182 -0.0148395 -0.0151607 -0.0154819 -0.0158032 -0.0161244 -0.0164457 -0.0167669 -0.0170881 -0.01757 -0.0182125 -0.0186943 -0.0191762 -0.0198187 -0.0204611 -0.0214248 -0.0228704 -0.0254403 -0.0291346
2 0.0025 0.0046875 0.0053125 0.0059375 0.0065625 0.0071875 0.0078125 0.0084375 0.0090625 0.0096875 0.0103125 0.0109375 0.0115625 0.0121875 0.0128125 0.0134375 0.0140625 0.0146875 0.0153125 0.0159375 0.0165625 0.0175 0.0184375 0.019375 0.0215625 0.0246875 0.02875 0.049375
2 0.0239303 0.00652988 0.00155834 -0.00236652 -0.00387629 -0.0043207 -0.00439966 -0.0040771 -0.00382236 -0.00364812 -0.0032635 -0.00198271 -0.000983752 0.000265832 0.00146757 0.00266611 0.00269865 0.00326995 0.00415367 0.00515802 0.00655291 0.00933795 0.0120959 0.0149357 0.0217867 0.0334587 0.0512282 0.141443
3 0.045875 0.062125 0.0759375 0.0840625 0.0889375 0.093 0.097875 0.10275 0.106 0.10925 0.1125 0.116563 0.120625 0.123875 0.126312 0.127937 0.129562 0.131188 0.133625 0.136063 0.137688 0.139313 0.140937 0.142562 0.144187 0.145813 0.147437 0.149062 0.150688 0.152313 0.153938 0.155562 0.157188 0.158813 0.160438 0.162062 0.163687 0.165313 0.166938 0.168563 0.170187 0.171813 0.173438 0.175063 0.176687 0.178312 0.179938 0.181563 0.183188 0.184812 0.186438 0.188063 0.189688 0.191312 0.192938 0.194563 0.196188 0.197813 0.199437 0.201063 0.202688 0.204313 0.205938 0.207563 0.209188 0.210813 0.212438 0.214063 0.215688 0.217313 0.218938 0.220563 0.222188 0.223813 0.225438 0.227063 0.228688 0.230313 0.231938 0.233563 0.235188 0.236813 0.238438 0.240063 0.241688 0.243313 0.244938 0.246563 0.248188 0.249813 0.251438 0.253063 0.254688 0.256313 0.257938 0.259563 0.262 0.26525 0.267688 0.27175 0.276625 0.282313 0.301
3 0.013192 0.0091945 0.00579661 0.00379785 0.00263394 0.00187099 0.00107807 0.000450843 -6.78616e-05 -0.000482156 -0.000751922 -0.00112516 -0.00151585 -0.00169519 -0.00174708 -0.00175061 -0.001707 -0.00167919 -0.00169949 -0.00166761 -0.00159237 -0.00154523 -0.00151791 -0.00159002 -0.00164418 -0.00176421 -0.00192884 -0.00204181 -0.00240044 -0.00286327 -0.00305812 -0.00330798 -0.00312929 -0.00282432 -0.002453 -0.00168234 -0.000834928 -0.000151976 0.000206372 0.000558739 0.00118177 0.00138018 0.00115299 0.000858024 0.000423355 8.75587e-05 -0.000236281 -0.000797808 -0.00143337 -0.00193962 -0.00213057 -0.00217939 -0.00231167 -0.00249337 -0.00258733 -0.00225301 -0.00185524 -0.00167068 -0.0016243 -0.00170472 -0.00211077 -0.00242845 -0.00332729 -0.00439373 -0.0057182 -0.0068601 -0.00694717 -0.00692196 -0.00673064 -0.00690918 -0.00663906 -0.0057565 -0.00514013 -0.00524701 -0.00512599 -0.00486502 -0.00445313 -0.00392288 -0.00397304 -0.00342967 -0.0029856 -0.0019839 0.000570838 0.00412502 0.00924509 0.0131788 0.0173477 0.0212837 0.0266463 0.0278888 0.0283646 0.0285011 0.0287903 0.0291235 0.0293886 0.0297641 0.0303912 0.0312941 0.032112 0.0335903 0.0356697 0.0380956 0.0460666
3 -2.1684e-19 0.00125 0.0021875 0.0028125 0.0034375 0.0040625 0.0046875 0.0053125 0.0059375 0.0065625 0.0071875 0.0078125 0.0084375 0.0090625 0.0096875 0.0103125 0.0109375 0.0115625 0.0121875 0.0128125 0.0134375 0.0140625 0.0146875 0.0153125 0.0159375 0.0165625 0.0171875 0.0178125 0.0184375 0.019375 0.020625 0.0221875 0.0246875 0.056875
3 -0.000594427 -0.00251207 -0.00395031 -0.00403194 -0.00368232 -0.00284034 -0.00185734 -0.00101608 -0.000420467 0.000168916 0.000766885 0.00110898 0.000765409 0.000829906 0.00123023 0.00103697 0.00142611 0.00200821 0.000949822 -0.00021628 -0.00100778 -0.00282311 -0.00390239 -0.00374797 -0.00369182 -0.00359533 -0.00278256 -0.002778 -0.00277345 -0.00276661 -0.0027575 -0.00274611 -0.00272789 -0.0024933
4 0.042625 0.0613125 0.068625 0.0735 0.0775625 0.08325 0.088125 0.0905625 0.0921875 0.094625 0.097875 0.101125 0.103563 0.105188 0.106813 0.108438 0.110063 0.111688 0.113313 0.114938 0.116563 0.118188 0.119813 0.121438 0.123063 0.124688 0.126312 0.127937 0.129562 0.131188 0.132812 0.134437 0.136063 0.137688 0.139313 0.140937 0.142562 0.144187 0.145813 0.147437 0.149062 0.150688 0.152313 0.153938 0.155562 0.157188 0.158813 0.160438 0.162062 0.163687 0.165313 0.166938 0.168563 0.170187 0.171813 0.173438 0.175063 0.176687 0.178312 0.179938 0.181563 0.183188 0.184812 0.186438 0.188063 0.189688 0.191312 0.192938 0.194563 0.196188 0.197813 0.199437 0.201063 0.202688 0.204313 0.205938 0.207563 0.209188 0.210813 0.212438 0.214063 0.215688 0.217313 0.218938 0.220563 0.222188 0.223813 0.225438 0.227063 0.228688 0.230313 0.231938 0.233563 0.235188 0.236813 0.238438 0.240063 0.241688 0.243313 0.244938 0.246563 0.248188 0.249813 0.251438 0.253063 0.254688 0.256313 0.257938 0.259563 0.261188 0.262813 0.264438 0.266063 0.267688 0.269313 0.270938 0.272563 0.274188 0.275813 0.277438 0.279063 0.280688 0.282313 0.283938 0.285563 0.287188 0.288813 0.290438 0.292063 0.293688 0.295313 0.296938 0.298563 0.300188 0.301813 0.303438 0.305063 0.306688 0.308313 0.309938 0.311563 0.313188 0.314813 0.316438 0.318063 0.319688 0.321313 0.322938 0.324563 0.326188 0.327813 0.329438 0.331063 0.332688 0.334313 0.335938 0.337563 0.339188 0.340813 0.342438 0.344063 0.345688 0.347313 0.348938 0.351375 0.353813 0.355438 0.357875 0.361125 0.365187 0.370063 0.374938 0.396875
4 0.0377448 0.0330572 0.0312229 0.0300001 0.028981 0.0275541 0.0263368 0.0257278 0.0253225 0.0247151 0.0239059 0.0230975 0.0224915 0.0220881 0.0216847 0.0212808 0.0208772 0.020473 0.0200694 0.0196672 0.0192652 0.0188662 0.0184644 0.0180643 0.0176641 0.0172647 0.0168663 0.0164648 0.0160618 0.0156585 0.0152538 0.0148475 0.0144389 0.01403 0.0136225 0.0132158 0.0128114 0.0124104 0.0120092 0.0116143 0.0112475 0.0107952 0.0103754 0.00989259 0.00939368 0.00902342 0.0085626 0.00821017 0.00793527 0.00777825 0.0075149 0.0073746 0.00724814 0.0071474 0.0069307 0.00669083 0.00621119 0.00543728 0.00472071 0.00411219 0.00352479 0.00294375 0.00235455 0.00195397 0.00152415 0.00138756 0.00141997 0.00137951 0.00127076 0.00108112 0.000912372 0.000752381 0.000506082 0.000232438 -0.000181687 -0.000662558 -0.00110934 -0.00154491 -0.00193217 -0.00240164 -0.00285639 -0.00332018 -0.00369017 -0.00399725 -0.00433951 -0.00472711 -0.00512464 -0.00544341 -0.00564744 -0.00589326 -0.00612129 -0.0063801 -0.00664081 -0.00684496 -0.00706211 -0.00728559 -0.00760106 -0.00794664 -0.00822091 -0.00852025 -0.00881991 -0.00916786 -0.00940059 -0.00958688 -0.00975631 -0.00980996 -0.00985149 -0.00988536 -0.00981289 -0.00975125 -0.00963606 -0.00957185 -0.00950864 -0.00942123 -0.00948691 -0.0096084 -0.00975158 -0.00988269 -0.0100503 -0.010219 -0.010509 -0.0107857 -0.0111799 -0.0114112 -0.0116463 -0.0119532 -0.0123044 -0.0126701 -0.013018 -0.0133144 -0.0135729 -0.013764 -0.0139647 -0.0141771 -0.0143507 -0.0145445 -0.014707 -0.0149012 -0.0151039 -0.0153164 -0.0155354 -0.015744 -0.0159599 -0.016147 -0.016347 -0.0165291 -0.0167077 -0.0168796 -0.0170809 -0.0173096 -0.0175435 -0.0177861 -0.0180487 -0.0183355 -0.0186453 -0.0189755 -0.0193536 -0.0197671 -0.0201721 -0.0205959 -0.0211082 -0.0216087 -0.0221519 -0.0227404 -0.0237188 -0.0247423 -0.0254557 -0.0266306 -0.0288716 -0.0315135 -0.0346837 -0.0378539 -0.0521198
4 0.0021875 0.0028125 0.0034375 0.0040625 0.0046875 0.0053125 0.0059375 0.0065625 0.0071875 0.0078125 0.0084375 0.0090625 0.0096875 0.0103125 0.0109375 0.0115625 0.0121875 0.0128125 0.0134375 0.0140625 0.0146875 0.0153125 0.0159375 0.0165625 0.0171875 0.018125 0.0190625 0.04375
4 0.00612762 0.000852371 -0.00442288 -0.00863043 -0.0106507 -0.0104291 -0.0086244 -0.00576295 -0.00265472 0.000257762 0.00283158 0.00502403 0.00769734 0.0103593 0.0126539 0.014259 0.0154782 0.0158086 0.0162419 0.0175129 0.018695 0.0200349 0.0220058 0.0235366 0.0250923 0.0274925 0.0298866 0.0929316
5 0.0475 0.0580625 0.0645625 0.0694375 0.0759375 0.081625 0.084875 0.088125 0.0921875 0.09625 0.0986875 0.101125 0.103563 0.105188 0.106813 0.108438 0.110875 0.113313 0.11575 0.118188 0.119813 0.121438 0.123063 0.124688 0.126312 0.127937 0.129562 0.131188 0.132812 0.134437 0.136063 0.137688 0.139313 0.140937 0.142562 0.144187 0.145813 0.147437 0.149062 0.150688 0.152313 0.153938 0.155562 0.157188 0.158813 0.160438 0.162062 0.163687 0.165313 0.166938 0.168563 0.170187 0.171813 0.173438 0.175063 0.176687 0.178312 0.179938 0.181563 0.183188 0.184812 0.186438 0.188063 0.189688 0.191312 0.192938 0.194563 0.196188 0.197813 0.199437 0.201063 0.202688 0.204313 0.205938 0.207563 0.209188 0.210813 0.212438 0.214063 0.215688 0.217313 0.218938 0.220563 0.222188 0.223813 0.225438 0.227063 0.228688 0.230313 0.231938 0.233563 0.235188 0.236813 0.238438 0.240063 0.241688 0.243313 0.244938 0.246563 0.248188 0.249813 0.251438 0.253063 0.254688 0.256313 0.257938 0.259563 0.261188 0.262813 0.264438 0.266063 0.267688 0.269313 0.270938 0.272563 0.274188 0.275813 0.277438 0.279063 0.280688 0.282313 0.283938 0.285563 0.287188 0.288813 0.290438 0.292063 0.293688 0.295313 0.296938 0.298563 0.300188 0.301813 0.303438 0.305063 0.306688 0.308313 0.309938 0.311563 0.313188 0.314813 0.316438 0.318063 0.319688 0.321313 0.322938 0.324563 0.326188 0.327813 0.329438 0.331063 0.332688 0.334313 0.335938 0.337563 0.339188 0.340813 0.342438 0.344063 0.345688 0.347313 0.348938 0.350563 0.352188 0.353813 0.355438 0.357063 0.358688 0.360313 0.361938 0.363563 0.365188 0.366813 0.368438 0.370063 0.371688 0.373313 0.374938 0.376563 0.379 0.381438 0.383063 0.384688 0.386313 0.387938 0.389563 0.392 0.396063 0.399313 0.402563 0.406625 0.410688 0.415563 0.423688 0.438313
5 0.0675788 0.0562476 0.0492745 0.0440447 0.0370717 0.0309703 0.02259 0.0211757 0.020329 0.0198187 0.0195779 0.0192288 0.018873 0.0186296 0.0183837 0.0181485 0.0176784 0.0172129 0.0167975 0.0163722 0.0160835 0.0158239 0.0155733 0.0152764 0.0149777 0.0147371 0.0145422 0.0144195 0.0142541 0.0140486 0.013827 0.013618 0.013397 0.0131773 0.0129671 0.0127341 0.0124415 0.0121584 0.0118931 0.0116303 0.0113712 0.0111288 0.0108855 0.0106503 0.0104205 0.00990201 0.00946654 0.00900068 0.00855377 0.00819393 0.00775822 0.00733319 0.00688398 0.00655598 0.00645044 0.00647155 0.00663454 0.00678664 0.00699154 0.00715573 0.00728416 0.00741003 0.00751775 0.00751993 0.00763578 0.00728791 0.00695162 0.00657892 0.00622359 0.00583045 0.00549347 0.00519443 0.00476666 0.00435347 0.00390158 0.00350684 0.00307327 0.00270661 0.00237896 0.00207452 0.00174309 0.00142825 0.00103756 0.000845141 0.000688587 0.000441249 0.00019647 2.19876e-05 -0.000248976 -0.000582868 -0.000876964 -0.00116182 -0.00146273 -0.00165496 -0.0019262 -0.00222285 -0.00242633 -0.00260803 -0.00281336 -0.00296001 -0.00306988 -0.00319417 -0.00329275 -0.00330384 -0.00339782 -0.00341535 -0.00342797 -0.00343185 -0.00344789 -0.00347653 -0.00353905 -0.00363911 -0.00376801 -0.00390349 -0.0041262 -0.00434936 -0.00455061 -0.00473495 -0.00493895 -0.00521292 -0.00544027 -0.00565382 -0.0057882 -0.00593269 -0.00606549 -0.00617762 -0.00623751 -0.00633783 -0.00648898 -0.00660337 -0.00673821 -0.00682813 -0.00682947 -0.00690487 -0.00697709 -0.00734172 -0.0076559 -0.00797653 -0.00833066 -0.00866311 -0.00902515 -0.00931291 -0.00971643 -0.0101714 -0.0106474 -0.0110733 -0.0112494 -0.0114392 -0.0116922 -0.0119407 -0.0122124 -0.0124583 -0.0126969 -0.0129189 -0.0131462 -0.0133541 -0.0135735 -0.0138325 -0.0140965 -0.0143803 -0.0146619 -0.0149328 -0.0152245 -0.0155395 -0.0158808 -0.0162348 -0.0166088 -0.0169941 -0.0173474 -0.0176998 -0.0180395 -0.0183898 -0.0187608 -0.0191112 -0.0194696 -0.0197889 -0.0200974 -0.0204183 -0.0207383 -0.0212173 -0.0217001 -0.0220014 -0.0223142 -0.0226087 -0.0228877 -0.0231724 -0.0235859 -0.0242616 -0.0248067 -0.0253658 -0.0260576 -0.0267494 -0.0275795 -0.028963 -0.0314534
5 0.0009375 0.0028125 0.0034375 0.0040625 0.0046875 0.0053125 0.0059375 0.0065625 0.0071875 0.0078125 0.0084375 0.0090625 0.0096875 0.0103125 0.0109375 0.0115625 0.0121875 0.0128125 0.0134375 0.0140625 0.0146875 0.0153125 0.0159375 0.0165625 0.0171875 0.0178125 0.0184375 0.019375 0.020625 0.0221875 0.0246875 0.028125 0.0446875
5 -0.0182941 -0.0138323 -0.012345 -0.0108577 -0.00936992 -0.00788229 -0.00641396 -0.00508747 -0.00359883 -0.00237189 -0.000742472 0.000895995 0.00288403 0.00507219 0.0068972 0.0086505 0.0105569 0.0121661 0.0139633 0.0167806 0.0190958 0.0203083 0.0206161 0.0212746 0.0209427 0.0206145 0.0211896 0.0208459 0.020087 0.0181582 0.0150419 0.0120833 -0.00217203
6 0.042625 0.0580625 0.0661875 0.0726875 0.078375 0.081625 0.084875 0.0873125 0.0889375 0.091375 0.0938125 0.0954375 0.097875 0.101125 0.104375 0.107625 0.110063 0.111688 0.113313 0.114938 0.116563 0.118188 0.119813 0.121438 0.123063 0.124688 0.126312 0.127937 0.129562 0.131188 0.132812 0.134437 0.136063 0.137688 0.139313 0.140937 0.142562 0.144187 0.145813 0.147437 0.149062 0.150688 0.152313 0.153938 0.155562 0.157188 0.158813 0.160438 0.162062 0.163687 0.165313 0.166938 0.168563 0.170187 0.171813 0.173438 0.175063 0.176687 0.178312 0.179938 0.181563 0.183188 0.184812 0.186438 0.188063 0.189688 0.191312 0.192938 0.194563 0.196188 0.197813 0.199437 0.201063 0.202688 0.204313 0.205938 0.207563 0.209188 0.210813 0.212438 0.214063 0.215688 0.217313 0.218938 0.220563 0.222188 0.223813 0.225438 0.227063 0.228688 0.230313 0.231938 0.233563 0.235188 0.236813 0.238438 0.240063 0.241688 0.243313 0.244938 0.246563 0.248188 0.249813 0.251438 0.253063 0.254688 0.256313 0.257938 0.259563 0.261188 0.263625 0.266875 0.269313 0.27175 0.275 0.27825 0.2815 0.28475 0.288 0.292063 0.31075
6 0.00286876 0.00398781 0.00457678 0.00504796 0.00536175 0.00548163 0.00548115 0.00542306 0.0053868 0.0052961 0.005131 0.00500564 0.00496343 0.0053743 0.00591702 0.00679915 0.00735803 0.00816627 0.00907383 0.00954943 0.0100294 0.0105076 0.0109879 0.0114762 0.0118695 0.0121905 0.0126429 0.013247 0.0138421 0.0147185 0.015456 0.0159962 0.0164606 0.0165428 0.0165056 0.0163026 0.0158286 0.014954 0.0138094 0.0127522 0.0120303 0.0110951 0.0100399 0.00927942 0.00867906 0.00820942 0.00772857 0.00731283 0.00687986 0.0064765 0.00609073 0.00562339 0.00518628 0.00479363 0.00426429 0.00342568 0.002668 0.00195003 0.00119976 0.000452642 -0.000521057 -0.00141837 -0.00191479 -0.00239048 -0.00313505 -0.00397672 -0.00463185 -0.00512995 -0.00590669 -0.00675161 -0.00748372 -0.0078597 -0.00828678 -0.00878177 -0.00912832 -0.00928594 -0.00941782 -0.00958161 -0.0100733 -0.0102796 -0.0103013 -0.0103311 -0.0104818 -0.0107009 -0.0107591 -0.0106783 -0.0108061 -0.0111448 -0.0114764 -0.0117307 -0.0119568 -0.0119796 -0.011997 -0.0119603 -0.0119084 -0.0118515 -0.0118252 -0.011779 -0.0117078 -0.0115899 -0.0114262 -0.0113133 -0.0111897 -0.0110078 -0.0108731 -0.0107927 -0.0107265 -0.0106344 -0.0105247 -0.0104111 -0.0102106 -0.00989746 -0.00966641 -0.00943766 -0.00914104 -0.00884784 -0.0085599 -0.00827801 -0.00800749 -0.00766934 -0.00611386
6 0.0040625 0.0046875 0.0053125 0.0059375 0.0065625 0.0071875 0.0078125 0.0084375 0.0090625 0.0096875 0.0103125 0.0109375 0.0115625 0.0121875 0.0128125 0.0134375 0.0140625 0.0146875 0.0153125 0.0159375 0.0165625 0.0171875 0.018125 0.0190625 0.020625 0.0228125 0.028125 0.0553125
6 -0.0237758 -0.0209249 -0.0180739 -0.0153631 -0.0127582 -0.0105305 -0.00765301 -0.00574005 -0.00371968 -0.00215729 -0.00045196 0.000214608 0.000943841 0.00185124 0.0029612 0.0043606 0.00660765 0.00837302 0.00989124 0.0114965 0.0130094 0.0144183 0.0169022 0.0197182 0.0244116 0.0309824 0.04694 0.128605
7 0.0548125 0.0775625 0.0865 0.093 0.0986875 0.10275 0.106813 0.110875 0.114125 0.116563 0.118188 0.120625 0.123875 0.126312 0.12875 0.132 0.13525 0.137688 0.139313 0.14175 0.144187 0.146625 0.149062 0.150688 0.152313 0.153938 0.155562 0.157188 0.158813 0.160438 0.162062 0.163687 0.165313 0.166938 0.168563 0.170187 0.171813 0.173438 0.175063 0.176687 0.178312 0.179938 0.181563 0.183188 0.184812 0.186438 0.188063 0.189688 0.191312 0.192938 0.194563 0.196188 0.197813 0.199437 0.201063 0.202688 0.204313 0.205938 0.207563 0.209188 0.210813 0.212438 0.214063 0.215688 0.217313 0.218938 0.220563 0.222188 0.223813 0.225438 0.227063 0.228688 0.230313 0.231938 0.233563 0.235188 0.236813 0.23925 0.2425 0.244938 0.246563 0.249 0.25225 0.254688 0.256313 0.25875 0.262 0.266063 0.270938 0.276625 0.299375
7 0.0503764 0.0401814 0.0361763 0.033253 0.0305899 0.0286558 0.0266833 0.024692 0.0230875 0.0218638 0.0210465 0.0198131 0.018156 0.0169105 0.0156653 0.0140051 0.0123448 0.0110996 0.0102695 0.00902427 0.00777908 0.00653388 0.00533491 0.0047168 0.00398714 0.00341359 0.00302003 0.00300341 0.00282398 0.00297298 0.00263213 0.00202538 0.0013609 0.00110969 0.000738165 0.000479286 0.000562135 0.000361212 -0.00041599 -0.000878779 -0.00131883 -0.00175591 -0.00237956 -0.00231467 -0.00293028 -0.00360103 -0.00404923 -0.00412425 -0.004238 -0.00386223 -0.0033648 -0.00298089 -0.00270876 -0.00225564 -0.00230587 -0.00263617 -0.00291411 -0.00337182 -0.00422949 -0.00481356 -0.00541798 -0.00614226 -0.00680325 -0.00749156 -0.00781002 -0.00805531 -0.0083206 -0.00875397 -0.00905016 -0.00961927 -0.0101093 -0.010561 -0.011018 -0.0114587 -0.0118993 -0.0123391 -0.0127832 -0.0134456 -0.0143287 -0.0149912 -0.0154291 -0.0160848 -0.0169584 -0.017611 -0.0180464 -0.0186996 -0.0195716 -0.0206633 -0.0219759 -0.0235081 -0.0296373
7 0.0003125 0.0009375 0.0015625 0.0021875 0.0028125 0.0034375 0.0040625 0.0046875 0.0053125 0.0059375 0.0065625 0.0071875 0.0078125 0.0084375 0.0090625 0.0096875 0.0103125 0.0109375 0.0115625 0.0121875 0.0128125 0.0134375 0.0140625 0.0146875 0.0153125 0.0159375 0.0165625 0.0171875 0.0178125 0.0184375 0.019375 0.02125 0.035625
7 -0.00831812 -0.00724161 -0.0061651 -0.00508859 -0.00401208 -0.00293516 -0.00188227 -0.00135789 -0.00106176 -0.00123423 -0.00118041 -0.00141936 -0.00161832 -0.00188246 -0.00170414 -0.00207522 -0.00262501 -0.00281272 -0.00277278 -0.00283936 -0.00200909 0.00133331 0.00313115 0.00519425 0.00778826 0.0108927 0.0129107 0.0183308 0.0230323 0.0266283 0.0322128 0.0364603 0.0690249
8 -99999
8 -99999
8 -99999
8 -99999
9 -99999
9 -99999
9 -99999
9 -99999
10 0.0466875 0.067 0.075125 0.08 0.084875 0.091375 0.09625 0.0995 0.101938 0.103563 0.105188 0.107625 0.110063 0.111688 0.113313 0.114938 0.116563 0.118188 0.119813 0.121438 0.123063 0.124688 0.126312 0.127937 0.129562 0.131188 0.132812 0.134437 0.136063 0.137688 0.139313 0.140937 0.142562 0.144187 0.145813 0.147437 0.149062 0.150688 0.152313 0.153938 0.155562 0.157188 0.158813 0.160438 0.162062 0.163687 0.165313 0.166938 0.168563 0.170187 0.171813 0.173438 0.175063 0.176687 0.178312 0.179938 0.181563 0.183188 0.184812 0.186438 0.188063 0.189688 0.191312 0.192938 0.194563 0.196188 0.197813 0.199437 0.201063 0.202688 0.204313 0.205938 0.207563 0.209188 0.210813 0.212438 0.214063 0.215688 0.217313 0.218938 0.220563 0.222188 0.223813 0.225438 0.227063 0.228688 0.230313 0.231938 0.233563 0.235188 0.236813 0.238438 0.240063 0.241688 0.243313 0.244938 0.246563 0.248188 0.249813 0.251438 0.253063 0.254688 0.256313 0.257938 0.259563 0.261188 0.262813 0.264438 0.266063 0.267688 0.269313 0.270938 0.272563 0.274188 0.275813 0.277438 0.279063 0.280688 0.282313 0.283938 0.285563 0.287188 0.288813 0.290438 0.292063 0.293688 0.295313 0.296938 0.298563 0.300188 0.301813 0.303438 0.305063 0.306688 0.308313 0.309938 0.311563 0.313188 0.314813 0.316438 0.318063 0.319688 0.321313 0.322938 0.324563 0.326188 0.327813 0.329438 0.331063 0.332688 0.334313 0.335938 0.337563 0.339188 0.340813 0.342438 0.344063 0.345688 0.347313 0.348938 0.350563 0.352188 0.353813 0.355438 0.357063 0.358688 0.360313 0.361938 0.363563 0.365188 0.366813 0.368438 0.370063 0.371688 0.373313 0.374938 0.376563 0.378188 0.379813 0.381438 0.383063 0.384688 0.386313 0.387938 0.390375 0.392813 0.394438 0.396063 0.397688 0.399313 0.400938 0.403375 0.406625 0.410688 0.422063
10 0.122681 0.108143 0.102327 0.0988382 0.095349 0.0906967 0.0872547 0.0849615 0.0832369 0.0820945 0.0809506 0.079239 0.0775344 0.0763999 0.0752679 0.0741368 0.0730044 0.0718743 0.0707449 0.069618 0.0684923 0.0673681 0.0662467 0.0651264 0.064007 0.0628883 0.0617714 0.0606558 0.0595386 0.0584241 0.0573098 0.0561961 0.055083 0.0539689 0.0528543 0.0517395 0.0506232 0.0495065 0.048389 0.0472741 0.0461524 0.0450326 0.043909 0.0427831 0.0416539 0.0405328 0.0394463 0.0383554 0.0372801 0.0361986 0.0351273 0.0340719 0.0329585 0.0318871 0.030852 0.0298566 0.0289137 0.0279419 0.027027 0.0260859 0.0252221 0.0243327 0.0234179 0.0225805 0.0217515 0.0209023 0.0200796 0.0192613 0.01846 0.017584 0.0167485 0.015853 0.0149999 0.0141517 0.0133323 0.0124905 0.0116138 0.010751 0.00994326 0.00922239 0.00856908 0.00790852 0.00729687 0.00665386 0.00606792 0.00551665 0.0049645 0.00445705 0.00389275 0.0032616 0.00259509 0.0019482 0.00133064 0.000709205 0.000158141 -0.000372491 -0.000946202 -0.00153835 -0.00210659 -0.00262282 -0.0031081 -0.0035904 -0.00409919 -0.0045849 -0.00507802 -0.00560618 -0.00606403 -0.00646691 -0.00675006 -0.00703908 -0.0073369 -0.00762059 -0.00788978 -0.00821222 -0.00856063 -0.0088732 -0.00916043 -0.00951022 -0.00991368 -0.0103465 -0.0107788 -0.0112236 -0.0115557 -0.0118125 -0.0119995 -0.0121792 -0.0123718 -0.012558 -0.0127298 -0.0128546 -0.0130264 -0.0131616 -0.0132478 -0.0134575 -0.0136914 -0.013963 -0.0142152 -0.0144424 -0.0146627 -0.014849 -0.0150833 -0.0152808 -0.0155024 -0.0157613 -0.0159684 -0.0161914 -0.0163941 -0.0165831 -0.0167711 -0.0169748 -0.017191 -0.017372 -0.017551 -0.0177217 -0.017894 -0.0180672 -0.0182426 -0.0184195 -0.018595 -0.0187724 -0.0189492 -0.0191238 -0.0193023 -0.0194832 -0.0196664 -0.019849 -0.020032 -0.0202159 -0.0204002 -0.0205844 -0.0207684 -0.0209525 -0.0211364 -0.0213202 -0.0215044 -0.0216884 -0.0218726 -0.022057 -0.0222415 -0.0224259 -0.0226101 -0.0227942 -0.0229783 -0.0231624 -0.0234383 -0.0237142 -0.0238981 -0.0240819 -0.0242657 -0.0244496 -0.0246334 -0.0249092 -0.0252769 -0.0257364 -0.0270233
10 0.0025 0.0034375 0.0040625 0.0046875 0.0053125 0.0059375 0.0065625 0.0071875 0.0078125 0.0084375 0.0090625 0.0096875 0.0103125 0.0109375 0.0115625 0.0121875 0.0128125 0.0134375 0.0140625 0.0146875 0.0153125 0.0159375 0.0165625 0.0171875 0.0178125 0.0184375 0.0190625 0.0196875 0.0203125 0.0209375 0.0215625 0.0221875 0.0228125 0.0234375 0.0240625 0.0246875 0.0253125 0.0259375 0.0265625 0.0271875 0.0278125 0.0284375 0.0290625 0.0296875 0.0303125 0.03125 0.0321875 0.033125 0.034375 0.035625 0.0371875 0.039375 0.0428125 0.0734375
10 -0.0340102 -0.0299715 -0.027279 -0.0246946 -0.0217946 -0.0192793 -0.0175012 -0.0163612 -0.0154317 -0.0151032 -0.0144793 -0.0136299 -0.012138 -0.00993343 -0.00723226 -0.00422851 -0.000662256 0.00322986 0.00737526 0.0113329 0.0151858 0.0187381 0.0222658 0.0251918 0.0281209 0.0311555 0.0344536 0.0379545 0.041801 0.0454488 0.0495641 0.0548447 0.0603098 0.0669717 0.0715681 0.0735368 0.0760727 0.0757052 0.0743723 0.075667 0.0771386 0.0776776 0.0785864 0.0797115 0.0812115 0.0836905 0.0861712 0.0887157 0.0921581 0.0956199 0.0997885 0.101787 0.100198 0.0860429
11 0.0499375 0.058875 0.06375 0.068625 0.071875 0.075125 0.0775625 0.0791875 0.081625 0.0840625 0.0856875 0.088125 0.0905625 0.0921875 0.0938125 0.0954375 0.0970625 0.0986875 0.100313 0.101938 0.103563 0.105188 0.106813 0.108438 0.110063 0.111688 0.113313 0.114938 0.116563 0.118188 0.119813 0.121438 0.123063 0.124688 0.126312 0.127937 0.129562 0.131188 0.132812 0.134437 0.136063 0.137688 0.139313 0.140937 0.142562 0.144187 0.145813 0.147437 0.149062 0.150688 0.152313 0.153938 0.155562 0.157188 0.158813 0.160438 0.162062 0.163687 0.165313 0.166938 0.168563 0.170187 0.171813 0.173438 0.175063 0.176687 0.178312 0.179938 0.181563 0.183188 0.184812 0.186438 0.188063 0.189688 0.191312 0.192938 0.194563 0.196188 0.197813 0.199437 0.201063 0.202688 0.204313 0.205938 0.207563 0.209188 0.210813 0.212438 0.214063 0.215688 0.217313 0.218938 0.220563 0.222188 0.223813 0.225438 0.227063 0.228688 0.230313 0.231938 0.233563 0.235188 0.236813 0.238438 0.240063 0.241688 0.243313 0.244938 0.246563 0.248188 0.249813 0.251438 0.253063 0.254688 0.256313 0.257938 0.259563 0.261188 0.262813 0.264438 0.266063 0.267688 0.269313 0.270938 0.272563 0.274188 0.275813 0.277438 0.279063 0.280688 0.282313 0.283938 0.285563 0.287188 0.288813 0.290438 0.292063 0.293688 0.295313 0.296938 0.298563 0.300188 0.301813 0.303438 0.305063 0.306688 0.308313 0.309938 0.311563 0.313188 0.314813 0.316438 0.318063 0.319688 0.321313 0.322938 0.324563 0.326188 0.327813 0.329438 0.331063 0.332688 0.334313 0.335938 0.337563 0.339188 0.340813 0.342438 0.344063 0.345688 0.347313 0.348938 0.350563 0.352188 0.353813 0.355438 0.357063 0.358688 0.360313 0.361938 0.363563 0.365188 0.366813 0.368438 0.370063 0.371688 0.373313 0.374938 0.376563 0.378188 0.379813 0.381438 0.383063 0.384688 0.386313 0.387938 0.389563 0.391188 0.392813 0.394438 0.396063 0.397688 0.399313 0.400938 0.402563 0.404188 0.405813 0.407438 0.409063 0.410688 0.412313 0.413938 0.415563 0.417188 0.418813 0.42125 0.423688 0.425313 0.42775 0.431 0.433438 0.436688 0.441563 0.445625 0.464313
11 0.131187 0.124836 0.121372 0.117908 0.115598 0.113289 0.111557 0.110397 0.10866 0.106921 0.105766 0.104026 0.10228 0.101114 0.0999458 0.0987782 0.0976083 0.0964371 0.0952743 0.094114 0.0929478 0.0917799 0.0906155 0.0894511 0.0882889 0.0871271 0.0859632 0.0847961 0.0836224 0.0824466 0.0812812 0.0800938 0.078902 0.0777133 0.0765311 0.0753427 0.0741554 0.0729687 0.0717792 0.0705954 0.0694158 0.0682349 0.0670495 0.0658567 0.064673 0.0634943 0.0623133 0.0611338 0.0599606 0.0587912 0.0576207 0.0564863 0.0553821 0.054293 0.0531064 0.0519518 0.0508256 0.0497129 0.0486111 0.0475013 0.0463815 0.0452282 0.0440689 0.0429227 0.0416881 0.0403928 0.0391391 0.0379766 0.0367988 0.0356039 0.0344357 0.0332527 0.0320937 0.0309758 0.0298825 0.0287824 0.0276725 0.0266778 0.0257342 0.0247753 0.0238319 0.0229151 0.0220215 0.0211204 0.0202273 0.0193465 0.0184429 0.0175932 0.0167808 0.0159855 0.0151732 0.0143674 0.0135487 0.0127665 0.0119752 0.0111867 0.0104024 0.00961305 0.00879777 0.00800781 0.00721057 0.00641416 0.00562804 0.0048245 0.00403747 0.00328176 0.00250191 0.0017488 0.00099703 0.00023688 -0.000474204 -0.00115121 -0.00183514 -0.00251654 -0.00317752 -0.00383421 -0.00445754 -0.00509653 -0.00575423 -0.00641374 -0.00705886 -0.00767959 -0.00828441 -0.00888556 -0.00946688 -0.0100297 -0.0105881 -0.0111457 -0.0116982 -0.0122453 -0.0128313 -0.013422 -0.013985 -0.0145788 -0.0152063 -0.0158188 -0.0164888 -0.0171564 -0.0178066 -0.0184816 -0.0191381 -0.0198036 -0.0204802 -0.0211099 -0.0216939 -0.0223106 -0.0228913 -0.0234677 -0.0240336 -0.0245628 -0.0251106 -0.0256311 -0.0261445 -0.0266809 -0.0272272 -0.0276947 -0.0281474 -0.0285744 -0.0289771 -0.0294184 -0.0298434 -0.0302716 -0.0306497 -0.0310209 -0.0314245 -0.0318027 -0.0321725 -0.0325298 -0.0329496 -0.0333768 -0.0338415 -0.0343036 -0.0347375 -0.0351713 -0.0356141 -0.0360939 -0.0365741 -0.0370506 -0.0375338 -0.0380117 -0.0384917 -0.0389701 -0.0394515 -0.0399326 -0.0404062 -0.040879 -0.0413547 -0.0418333 -0.0422933 -0.0427485 -0.0431938 -0.0436329 -0.0440784 -0.0445221 -0.0449626 -0.0453938 -0.0458169 -0.046242 -0.046658 -0.0470665 -0.0474613 -0.047868 -0.0482767 -0.0486785 -0.0490718 -0.0494443 -0.0498165 -0.0501778 -0.0505417 -0.0508996 -0.0512466 -0.0515826 -0.0519131 -0.0522288 -0.0525534 -0.0529995 -0.0534545 -0.0537414 -0.0541133 -0.0545837 -0.0549365 -0.0554069 -0.0561124 -0.0567004 -0.0594051
11 0.0009375 0.0028125 0.0034375 0.0040625 0.0046875 0.0053125 0.0059375 0.0065625 0.0071875 0.0078125 0.0084375 0.0090625 0.0096875 0.0103125 0.0109375 0.0115625 0.0121875 0.0128125 0.0134375 0.0140625 0.0146875 0.0153125 0.0159375 0.0165625 0.0171875 0.0178125 0.0184375 0.0190625 0.0196875 0.0203125 0.0209375 0.0215625 0.0221875 0.0228125 0.0234375 0.0240625 0.0246875 0.0253125 0.0259375 0.0265625 0.0271875 0.0278125 0.0284375 0.0290625 0.0296875 0.0303125 0.0309375 0.0315625 0.0321875 0.0328125 0.0334375 0.0340625 0.0346875 0.0353125 0.03625 0.0371875 0.0378125 0.03875 0.04 0.04125 0.043125 0.0475 0.074375
11 -0.0830996 -0.0719576 -0.0682436 -0.064459 -0.0603228 -0.0560326 -0.0514797 -0.0467276 -0.0418427 -0.0369892 -0.031827 -0.0265751 -0.0210513 -0.0154078 -0.0095254 -0.00360986 0.00246822 0.00840902 0.0145536 0.0204035 0.025864 0.0309243 0.0360008 0.0405867 0.0452812 0.0501249 0.0548562 0.0596191 0.0639442 0.067926 0.0716028 0.0740456 0.0763845 0.0792253 0.0826518 0.0863433 0.0911416 0.095803 0.0994115 0.102483 0.103727 0.102132 0.101232 0.100283 0.0998017 0.100172 0.102412 0.103765 0.105431 0.10707 0.109443 0.112111 0.115203 0.117154 0.120816 0.124055 0.125949 0.1283 0.131133 0.133848 0.137951 0.147721 0.207738
12 0.045875 0.054 0.0613125 0.0661875 0.07025 0.0726875 0.0743125 0.07675 0.0791875 0.0808125 0.0824375 0.0840625 0.0856875 0.0873125 0.0889375 0.0905625 0.0921875 0.0938125 0.0954375 0.0970625 0.0986875 0.100313 0.101938 0.103563 0.105188 0.106813 0.108438 0.110063 0.111688 0.113313 0.114938 0.116563 0.118188 0.119813 0.121438 0.123063 0.124688 0.126312 0.127937 0.129562 0.131188 0.132812 0.134437 0.136063 0.137688 0.139313 0.140937 0.142562 0.144187 0.145813 0.147437 0.149062 0.150688 0.152313 0.153938 0.155562 0.157188 0.158813 0.160438 0.162062 0.163687 0.165313 0.166938 0.168563 0.170187 0.171813 0.173438 0.175063 0.176687 0.178312 0.179938 0.181563 0.183188 0.184812 0.186438 0.188063 0.189688 0.191312 0.192938 0.194563 0.196188 0.197813 0.199437 0.201063 0.202688 0.204313 0.205938 0.207563 0.209188 0.210813 0.212438 0.214063 0.215688 0.217313 0.218938 0.220563 0.222188 0.223813 0.225438 0.227063 0.228688 0.230313 0.231938 0.233563 0.235188 0.236813 0.238438 0.240063 0.241688 0.243313 0.244938 0.246563 0.248188 0.249813 0.251438 0.253063 0.254688 0.256313 0.257938 0.259563 0.261188 0.262813 0.264438 0.266063 0.267688 0.269313 0.270938 0.272563 0.274188 0.275813 0.277438 0.279063 0.280688 0.282313 0.283938 0.285563 0.287188 0.288813 0.290438 0.292063 0.293688 0.295313 0.296938 0.298563 0.300188 0.301813 0.303438 0.305063 0.306688 0.308313 0.309938 0.311563 0.313188 0.314813 0.316438 0.318063 0.319688 0.321313 0.322938 0.324563 0.326188 0.327813 0.329438 0.331063 0.332688 0.334313 0.335938 0.337563 0.339188 0.340813 0.342438 0.344063 0.345688 0.347313 0.348938 0.350563 0.352188 0.353813 0.355438 0.357063 0.358688 0.360313 0.361938 0.363563 0.365188 0.366813 0.368438 0.370063 0.371688 0.373313 0.374938 0.376563 0.378188 0.379813 0.381438 0.383063 0.384688 0.386313 0.387938 0.389563 0.391188 0.392813 0.394438 0.396063 0.397688 0.399313 0.400938 0.402563 0.404188 0.405813 0.407438 0.409063 0.410688 0.412313 0.413938 0.415563 0.417188 0.418813 0.420438 0.422063 0.423688 0.425313 0.426938 0.428563 0.430188 0.431813 0.433438 0.435063 0.436688 0.438313 0.439938 0.441563 0.443188 0.444813 0.446438 0.448063 0.449688 0.451313 0.452938 0.454563 0.456188 0.457813 0.459437 0.461063 0.462688 0.464313 0.46675 0.469188 0.471625 0.474875 0.480563 0.498437
12 0.217996 0.194783 0.173891 0.159963 0.148357 0.141393 0.13675 0.130761 0.125265 0.122004 0.119248 0.116916 0.114743 0.112492 0.110333 0.108273 0.106209 0.104237 0.102266 0.100363 0.0985597 0.0966812 0.0947712 0.0928649 0.0910529 0.089247 0.0875326 0.0859377 0.08432 0.0827462 0.0812665 0.0798681 0.0785974 0.0773372 0.076196 0.0750448 0.0740181 0.0730156 0.0721132 0.0711688 0.0702224 0.0693097 0.0684042 0.0675203 0.0666031 0.0656785 0.0647075 0.0637341 0.0628114 0.0618416 0.0608608 0.0598553 0.0588524 0.0578527 0.0568453 0.0558393 0.0548097 0.0538077 0.0527931 0.0517945 0.0507563 0.0497196 0.0487449 0.0477473 0.0467371 0.0457488 0.0447595 0.04378 0.0428061 0.0418662 0.0409402 0.0400406 0.0391698 0.0383553 0.0375872 0.036801 0.0360791 0.0353682 0.0346635 0.0339759 0.0332957 0.0326482 0.031989 0.031334 0.0306758 0.0300119 0.0293588 0.028671 0.0279583 0.0272161 0.0264937 0.0257844 0.0250776 0.0243737 0.0236487 0.0229379 0.0222244 0.0215406 0.0208439 0.0201728 0.0195289 0.0188829 0.0182223 0.0175642 0.0168928 0.0162229 0.0155391 0.0148707 0.0141934 0.0135079 0.0128205 0.0121672 0.0115043 0.010838 0.0101932 0.00957301 0.00896159 0.00836814 0.00778312 0.0072194 0.00665203 0.0060885 0.005551 0.0049961 0.00443655 0.00387876 0.00331728 0.00275451 0.00219326 0.00163416 0.00107736 0.000510873 -4.38047e-05 -0.000589414 -0.00110911 -0.00163656 -0.0021494 -0.00265106 -0.00315228 -0.00364494 -0.00415154 -0.00464407 -0.00513764 -0.00565273 -0.0061672 -0.00668007 -0.00720135 -0.00774237 -0.00827814 -0.00880894 -0.00935917 -0.00990021 -0.0104556 -0.0109899 -0.0115335 -0.0120717 -0.0125944 -0.0131273 -0.0136489 -0.0141715 -0.0147193 -0.015282 -0.0158737 -0.0164678 -0.0170442 -0.0176347 -0.0182184 -0.0187867 -0.019339 -0.0198961 -0.0204297 -0.0209885 -0.0215129 -0.0220075 -0.0224369 -0.0228329 -0.0231956 -0.0235693 -0.0239133 -0.0242453 -0.0245808 -0.0249235 -0.0252475 -0.025568 -0.0258746 -0.0262008 -0.0265134 -0.0268777 -0.0272469 -0.0276311 -0.0280147 -0.0283981 -0.0287916 -0.0291812 -0.0295744 -0.0299754 -0.0303756 -0.0307773 -0.0311839 -0.0315913 -0.0320039 -0.0324151 -0.0328256 -0.0332388 -0.0336518 -0.0340648 -0.0344767 -0.0348878 -0.0352954 -0.0357076 -0.036114 -0.0365174 -0.0369083 -0.0372919 -0.0376704 -0.0380526 -0.0384315 -0.038805 -0.0391781 -0.0395491 -0.0399144 -0.040279 -0.0406416 -0.0410083 -0.0413702 -0.041744 -0.0421176 -0.0424955 -0.0428726 -0.0432481 -0.0436279 -0.0440062 -0.0443908 -0.0447786 -0.0451669 -0.0455564 -0.0459473 -0.04634 -0.0467342 -0.0471293 -0.0475265 -0.0479253 -0.0483274 -0.0487309 -0.0491421 -0.0495418 -0.0501503 -0.0507588 -0.0513673 -0.0521786 -0.0535984 -0.0580608
12 0.00125 0.0034375 0.0040625 0.0046875 0.0053125 0.0059375 0.0065625 0.0071875 0.0078125 0.0084375 0.0090625 0.0096875 0.0103125 0.0109375 0.0115625 0.0121875 0.0128125 0.0134375 0.0140625 0.0146875 0.0153125 0.0159375 0.0165625 0.0171875 0.0178125 0.0184375 0.0190625 0.0196875 0.0203125 0.0209375 0.0215625 0.0221875 0.0228125 0.0234375 0.0240625 0.0246875 0.0253125 0.0259375 0.0265625 0.0271875 0.0278125 0.0284375 0.0290625 0.0296875 0.0303125 0.0309375 0.0315625 0.0321875 0.0328125 0.0334375 0.0340625 0.0346875 0.0353125 0.0359375 0.0365625 0.0371875 0.0378125 0.0384375 0.0390625 0.0396875 0.0403125 0.04125 0.0425 0.0434375 0.044375 0.0453125 0.0471875 0.049375 0.051875 0.0565625 0.0621875 0.105
12 -0.0895729 -0.0735148 -0.0689268 -0.0643438 -0.0597722 -0.0552089 -0.050656 -0.0460545 -0.0414239 -0.0368397 -0.032239 -0.0275319 -0.0228434 -0.0181491 -0.0134685 -0.00868225 -0.00394675 0.000908069 0.00579163 0.0106747 0.0154859 0.0201675 0.0246417 0.0288466 0.0327614 0.0364014 0.0402064 0.0440131 0.0479727 0.0521788 0.0563459 0.0602541 0.0640697 0.067867 0.0716835 0.0760604 0.0801422 0.0843417 0.0880393 0.0914143 0.0940457 0.0966315 0.0990888 0.101881 0.105079 0.109056 0.113428 0.116713 0.120887 0.12518 0.128867 0.13222 0.135223 0.136631 0.137942 0.138972 0.14131 0.144328 0.146273 0.147434 0.148985 0.147915 0.150327 0.152975 0.157169 0.159864 0.168506 0.176386 0.185428 0.202515 0.223129 0.380022
13 0.013375 0.023125 0.0271875 0.03125 0.0336875 0.036125 0.039375 0.042625 0.0450625 0.0466875 0.0483125 0.0499375 0.0515625 0.0531875 0.0548125 0.0564375 0.0580625 0.0596875 0.0613125 0.0629375 0.0645625 0.0661875 0.0678125 0.0694375 0.0710625 0.0726875 0.0743125 0.0759375 0.0775625 0.0791875 0.0808125 0.0824375 0.0840625 0.0856875 0.0873125 0.0889375 0.0905625 0.0921875 0.0938125 0.0954375 0.0970625 0.0986875 0.100313 0.101938 0.103563 0.105188 0.106813 0.108438 0.110063 0.111688 0.113313 0.114938 0.116563 0.118188 0.119813 0.121438 0.123063 0.124688 0.126312 0.127937 0.129562 0.131188 0.132812 0.134437 0.136063 0.137688 0.139313 0.140937 0.142562 0.144187 0.145813 0.147437 0.149062 0.150688 0.152313 0.153938 0.155562 0.157188 0.158813 0.160438 0.162062 0.163687 0.165313 0.166938 0.168563 0.170187 0.171813 0.173438 0.175063 0.176687 0.178312 0.179938 0.181563 0.183188 0.184812 0.186438 0.188063 0.189688 0.191312 0.192938 0.194563 0.196188 0.197813 0.199437 0.201063 0.202688 0.204313 0.205938 0.207563 0.209188 0.210813 0.212438 0.214063 0.215688 0.217313 0.218938 0.220563 0.222188 0.223813 0.225438 0.227063 0.228688 0.230313 0.231938 0.233563 0.235188 0.236813 0.238438 0.240063 0.241688 0.243313 0.244938 0.246563 0.248188 0.249813 0.251438 0.253063 0.254688 0.256313 0.257938 0.259563 0.261188 0.262813 0.264438 0.266063 0.267688 0.269313 0.270938 0.272563 0.274188 0.275813 0.277438 0.279063 0.280688 0.282313 0.283938 0.285563 0.287188 0.288813 0.290438 0.292063 0.293688 0.295313 0.296938 0.298563 0.300188 0.301813 0.303438 0.305063 0.306688 0.308313 0.309938 0.311563 0.313188 0.314813 0.316438 0.318063 0.319688 0.321313 0.322938 0.324563 0.326188 0.327813 0.329438 0.331063 0.332688 0.334313 0.335938 0.337563 0.339188 0.340813 0.342438 0.344063 0.345688 0.347313 0.348938 0.350563 0.352188 0.353813 0.355438 0.357063 0.358688 0.360313 0.361938 0.363563 0.365188 0.366813 0.368438 0.370063 0.371688 0.373313 0.374938 0.376563 0.378188 0.379813 0.381438 0.383063 0.384688 0.386313 0.387938 0.389563 0.391188 0.392813 0.394438 0.396063 0.397688 0.399313 0.400938 0.402563 0.404188 0.405813 0.407438 0.409063 0.410688 0.412313 0.413938 0.415563 0.417188 0.418813 0.420438 0.422063 0.423688 0.425313 0.426938 0.428563 0.430188 0.431813 0.433438 0.435063 0.436688 0.438313 0.439938 0.441563 0.443188 0.444813 0.446438 0.448063 0.449688 0.451313 0.452938 0.454563 0.456188 0.457813 0.459437 0.461063 0.462688 0.464313 0.46675 0.469188 0.471625 0.474875 0.47975 0.493563
13 0.125389 0.120164 0.117986 0.115809 0.114502 0.113196 0.111454 0.109712 0.108406 0.107535 0.106664 0.105793 0.104922 0.104051 0.10318 0.102309 0.101439 0.100568 0.0996973 0.0988265 0.0979557 0.0970852 0.0962147 0.0953443 0.0944737 0.0936035 0.0927331 0.0918626 0.0909924 0.090122 0.0892519 0.0883819 0.0875122 0.0866416 0.0857706 0.0848991 0.0840275 0.0831543 0.0822821 0.0814094 0.0805362 0.0796638 0.0787907 0.0779169 0.0770434 0.0761687 0.0752937 0.0744177 0.0735433 0.0726686 0.0717938 0.0709193 0.0700471 0.069172 0.0682986 0.0674261 0.0665529 0.06568 0.0648076 0.0639335 0.0630603 0.0621865 0.0613326 0.060492 0.0596495 0.0587924 0.0579929 0.0571685 0.0563194 0.0554902 0.0546443 0.0538079 0.0529746 0.0521485 0.0512821 0.0504069 0.049515 0.0486125 0.047656 0.0467032 0.0457631 0.0447674 0.0437938 0.042835 0.0418659 0.0409261 0.0399557 0.0389889 0.0380085 0.0370801 0.0361541 0.0352401 0.0343392 0.0334988 0.0326219 0.0317755 0.0309366 0.0300918 0.0292629 0.0284266 0.027571 0.0267232 0.0258701 0.0250179 0.0241498 0.0232862 0.0224277 0.0215582 0.0206785 0.0198215 0.0189347 0.0180321 0.017134 0.0162366 0.0153452 0.0144729 0.0136124 0.0127468 0.0118886 0.0110502 0.0102166 0.00939325 0.00856455 0.00772674 0.00689964 0.00608229 0.00527582 0.00447687 0.00368368 0.0028853 0.00207574 0.00126376 0.000452918 -0.000360436 -0.00119201 -0.00203233 -0.00288793 -0.00374096 -0.00458007 -0.00542395 -0.00626143 -0.00709993 -0.00794768 -0.00879353 -0.00964473 -0.0104935 -0.0113344 -0.0121662 -0.0130026 -0.013824 -0.0146389 -0.0154544 -0.0162756 -0.017112 -0.0179477 -0.0187743 -0.019616 -0.0204601 -0.0213087 -0.022155 -0.0229956 -0.0238287 -0.0246714 -0.0255095 -0.0263522 -0.0271928 -0.0280402 -0.0288798 -0.0297407 -0.0306106 -0.0314903 -0.0323544 -0.0331999 -0.034025 -0.0348437 -0.0356755 -0.0365183 -0.0373453 -0.0381729 -0.0389791 -0.0397902 -0.0405982 -0.0414106 -0.0421725 -0.042948 -0.0437221 -0.0445115 -0.0453117 -0.0461305 -0.0469628 -0.0477906 -0.0485984 -0.0494018 -0.0501894 -0.0510227 -0.0518381 -0.0526684 -0.0534939 -0.0543468 -0.0551695 -0.0559969 -0.0568066 -0.0576129 -0.0584245 -0.0592261 -0.060028 -0.0608381 -0.0616601 -0.0624924 -0.0633092 -0.0641404 -0.0649495 -0.0657561 -0.0665561 -0.0673522 -0.0681455 -0.0689468 -0.0697528 -0.0705525 -0.0713565 -0.0721576 -0.0729609 -0.0737668 -0.0745773 -0.0753742 -0.0761753 -0.0769736 -0.077779 -0.0785906 -0.0794086 -0.0802278 -0.0810427 -0.0818552 -0.0826698 -0.0834823 -0.0842972 -0.0851121 -0.0859252 -0.086736 -0.0875522 -0.0883605 -0.0891685 -0.0899754 -0.0907822 -0.091588 -0.0923927 -0.0931968 -0.094001 -0.0948052 -0.0956098 -0.0964134 -0.0972173 -0.0980198 -0.0988224 -0.0996249 -0.100427 -0.10123 -0.102032 -0.102835 -0.103637 -0.10444 -0.105243 -0.106046 -0.106849 -0.107653 -0.108456 -0.109259 -0.110463 -0.111668 -0.112873 -0.114479 -0.116888 -0.123715
13 0.0015625 0.0040625 0.0046875 0.0053125 0.0059375 0.0065625 0.0071875 0.0078125 0.0084375 0.0090625 0.0096875 0.0103125 0.0109375 0.0115625 0.0121875 0.0128125 0.0134375 0.0140625 0.0146875 0.0153125 0.0159375 0.0165625 0.0171875 0.0178125 0.0184375 0.0190625 0.0196875 0.0203125 0.0209375 0.0215625 0.0221875 0.0228125 0.0234375 0.0240625 0.0246875 0.0253125 0.0259375 0.0265625 0.0271875 0.0278125 0.0284375 0.0290625 0.0296875 0.0303125 0.0309375 0.0315625 0.0321875 0.0328125 0.0334375 0.0340625 0.0346875 0.0353125 0.0359375 0.0365625 0.0371875 0.0378125 0.0384375 0.0390625 0.0396875 0.0403125 0.0409375 0.0415625 0.0421875 0.0428125 0.0434375 0.0440625 0.0446875 0.0453125 0.0459375 0.0465625 0.0471875 0.0478125 0.0484375 0.0490625 0.0496875 0.0503125 0.0509375 0.0515625 0.0521875 0.0528125 0.0534375 0.0540625 0.0546875 0.0553125 0.0559375 0.0565625 0.0571875 0.0578125 0.05875 0.0603125 0.0615625 0.0621875 0.0628125 0.06375 0.065 0.0665625 0.068125 0.0690625 0.07 0.07125 0.0725 0.0746875 0.0771875 0.0790625 0.0809375 0.0828125 0.086875 0.09125 0.09625 0.102813 0.109062 0.120937 0.161875
13 -0.0919189 -0.0799975 -0.0770172 -0.0740368 -0.0711173 -0.0682508 -0.0654221 -0.0626272 -0.0598568 -0.0571219 -0.054217 -0.0510233 -0.0476612 -0.0442756 -0.0408233 -0.037424 -0.0337734 -0.0299988 -0.0262026 -0.0223383 -0.018166 -0.0137147 -0.00909336 -0.00475676 -0.000822097 0.00265055 0.0058842 0.00869546 0.0110317 0.0132229 0.0153889 0.0176419 0.0199482 0.0220538 0.0241995 0.0264391 0.0285735 0.0307839 0.0330773 0.0355436 0.0381542 0.0407517 0.0433562 0.0460976 0.0488558 0.0516117 0.0541816 0.0566636 0.0592847 0.0617949 0.0642623 0.0666913 0.0691782 0.0716729 0.0742429 0.0768676 0.0791736 0.08127 0.0831678 0.0848301 0.0866337 0.0883713 0.0901695 0.0921471 0.0936572 0.0960759 0.0984429 0.100571 0.102333 0.104042 0.106085 0.108204 0.109251 0.110116 0.111033 0.11206 0.112965 0.113643 0.114328 0.115187 0.116078 0.117016 0.117842 0.118549 0.119013 0.119678 0.120297 0.120936 0.121714 0.123055 0.124179 0.124752 0.125326 0.126186 0.127333 0.128767 0.130201 0.131061 0.131921 0.133068 0.134215 0.136223 0.138517 0.140237 0.141958 0.143678 0.147406 0.151421 0.156009 0.162031 0.167766 0.178662 0.216227
14 0
14 0
14 0.0065625 0.0090625 0.01125 0.0125 0.01375 0.0146875 0.0153125 0.0159375 0.0165625 0.0171875 0.0178125 0.0184375 0.0190625 0.0196875 0.0203125 0.0209375 0.0215625 0.0221875 0.0228125 0.0234375 0.0240625 0.0246875 0.0253125 0.0259375 0.0265625 0.0271875 0.0278125 0.0284375 0.0290625 0.0296875 0.0303125 0.0309375 0.0315625 0.0321875 0.0328125 0.0334375 0.0340625 0.0346875 0.0353125 0.0359375 0.0365625 0.0371875 0.0378125 0.0384375 0.0390625 0.0396875 0.0403125 0.0409375 0.0415625 0.0421875 0.0428125 0.0434375 0.0440625 0.0446875 0.0453125 0.0459375 0.0465625 0.0471875 0.0478125 0.0484375 0.0490625 0.0496875 0.0503125 0.0509375 0.0515625 0.0521875 0.0528125 0.0534375 0.0540625 0.0546875 0.0553125 0.0559375 0.0565625 0.0571875 0.0578125 0.0584375 0.0590625 0.0596875 0.0603125 0.0609375 0.0615625 0.0621875 0.0628125 0.0634375 0.0640625 0.065 0.0659375 0.066875 0.0678125 0.0690625 0.07125 0.07375 0.07625 0.0796875 0.083125 0.0859375 0.0909375 0.105938 0.157188
14 -0.00795066 -0.0106188 -0.0129535 -0.0141319 -0.0161131 -0.0168649 -0.0171811 -0.0171267 -0.0168316 -0.014904 -0.0137335 -0.012233 -0.0119747 -0.0110793 -0.0110276 -0.0093474 -0.00775716 -0.00443636 -0.00192616 0.000843826 0.00345581 0.00614313 0.00814603 0.0105979 0.0125547 0.0139926 0.0147372 0.015715 0.0162222 0.0159003 0.0156396 0.0153638 0.0148852 0.0141579 0.0133366 0.0125041 0.0113076 0.00954534 0.00771987 0.00652084 0.00488867 0.00361009 0.00247795 0.00148349 -0.000109304 -0.00137817 -0.00311067 -0.00459958 -0.0067497 -0.00915096 -0.0114046 -0.0133331 -0.0154761 -0.0172018 -0.0179272 -0.0186809 -0.0194222 -0.0198874 -0.0196276 -0.0189974 -0.0181669 -0.0168486 -0.0147715 -0.0124858 -0.00936214 -0.00575678 -0.00201864 0.00115159 0.00454461 0.00726175 0.0102299 0.0128473 0.0156297 0.0184138 0.0214161 0.0230697 0.0254636 0.0285056 0.0304879 0.0325831 0.0352979 0.0376988 0.0396193 0.0416788 0.0436889 0.0466936 0.050096 0.0535799 0.0571624 0.0618728 0.0702897 0.0798341 0.0892651 0.102028 0.11462 0.124354 0.141522 0.184084 0.329502
15 0
15 0
15 0.009375 0.0115625 0.013125 0.0140625 0.015 0.0159375 0.0165625 0.0171875 0.0178125 0.0184375 0.0190625 0.0196875 0.0203125 0.0209375 0.0215625 0.0221875 0.0228125 0.0234375 0.0240625 0.0246875 0.0253125 0.0259375 0.0265625 0.0271875 0.0278125 0.0284375 0.0290625 0.0296875 0.0303125 0.0309375 0.0315625 0.0321875 0.0328125 0.0334375 0.0340625 0.0346875 0.0353125 0.0359375 0.0365625 0.0371875 0.0378125 0.0384375 0.0390625 0.0396875 0.0403125 0.0409375 0.0415625 0.0421875 0.0428125 0.0434375 0.0440625 0.0446875 0.0453125 0.0459375 0.0465625 0.0471875 0.0478125 0.0484375 0.0490625 0.0496875 0.0503125 0.0509375 0.0515625 0.0521875 0.0528125 0.0534375 0.0540625 0.0546875 0.0553125 0.0559375 0.0565625 0.0571875 0.0578125 0.0584375 0.0590625 0.0596875 0.0603125 0.06125 0.0625 0.0634375 0.064375 0.065625 0.0665625 0.0671875 0.06875 0.070625 0.0721875 0.074375 0.07875 0.0846875 0.091875 0.104375 0.152812
15 -0.0203633 -0.020234 -0.0201417 -0.0199754 -0.0198368 -0.0193482 -0.0189054 -0.0183647 -0.0177311 -0.0165818 -0.0151595 -0.0134494 -0.0119715 -0.0102981 -0.00926403 -0.00850258 -0.00710986 -0.00543698 -0.0033113 -0.000930364 0.00232017 0.00517431 0.00841091 0.0115182 0.0147407 0.0172874 0.0190541 0.020555 0.0216979 0.0228689 0.0239929 0.0247565 0.0246964 0.0243519 0.0226725 0.0209426 0.0196303 0.0181812 0.0152096 0.0103276 0.00283146 -0.00680237 -0.0168612 -0.0247343 -0.0291513 -0.0318204 -0.0315827 -0.0308522 -0.0306517 -0.0312869 -0.0320668 -0.0322912 -0.031203 -0.0287174 -0.0252656 -0.0214308 -0.0171113 -0.0130519 -0.00986891 -0.00703846 -0.00416996 -0.00205704 -0.00032766 0.0014697 0.00377069 0.00608829 0.00790832 0.010157 0.0125246 0.0145935 0.0164359 0.018444 0.020233 0.022159 0.0240522 0.0258692 0.0278907 0.0309538 0.0351887 0.0384322 0.0416958 0.0460482 0.0493124 0.0514886 0.056929 0.0634575 0.0688979 0.0765145 0.0917477 0.112421 0.137447 0.180971 0.349624
16 0.0596875 0.08 0.088125 0.091375 0.0954375 0.0995 0.10275 0.105188 0.106813 0.10925 0.111688 0.113313 0.114938 0.117375 0.119813 0.121438 0.123063 0.124688 0.126312 0.127937 0.129562 0.131188 0.132812 0.134437 0.136063 0.137688 0.139313 0.140937 0.142562 0.144187 0.145813 0.147437 0.149062 0.150688 0.152313 0.153938 0.155562 0.157188 0.158813 0.160438 0.162062 0.163687 0.165313 0.166938 0.168563 0.170187 0.171813 0.173438 0.175063 0.176687 0.178312 0.179938 0.181563 0.183188 0.184812 0.186438 0.188063 0.189688 0.191312 0.192938 0.194563 0.196188 0.197813 0.199437 0.201063 0.202688 0.204313 0.205938 0.207563 0.209188 0.210813 0.212438 0.214063 0.215688 0.217313 0.218938 0.220563 0.222188 0.223813 0.225438 0.227063 0.228688 0.230313 0.231938 0.233563 0.235188 0.236813 0.238438 0.240063 0.241688 0.243313 0.244938 0.246563 0.248188 0.249813 0.251438 0.253063 0.254688 0.256313 0.257938 0.259563 0.261188 0.262813 0.264438 0.266063 0.267688 0.269313 0.270938 0.272563 0.274188 0.275813 0.277438 0.279063 0.280688 0.282313 0.283938 0.285563 0.287188 0.288813 0.290438 0.292063 0.293688 0.295313 0.296938 0.298563 0.300188 0.301813 0.303438 0.305063 0.306688 0.308313 0.309938 0.311563 0.313188 0.314813 0.316438 0.318063 0.319688 0.321313 0.322938 0.324563 0.326188 0.327813 0.329438 0.331063 0.332688 0.334313 0.335938 0.337563 0.339188 0.340813 0.342438 0.344063 0.345688 0.347313 0.348938 0.350563 0.352188 0.353813 0.355438 0.357063 0.358688 0.360313 0.361938 0.363563 0.365188 0.366813 0.368438 0.370063 0.371688 0.373313 0.374938 0.376563 0.378188 0.379813 0.381438 0.383063 0.384688 0.386313 0.387938 0.389563 0.391188 0.392813 0.394438 0.396875 0.399313 0.400938 0.403375 0.406625 0.409063 0.418813
16 0.0849972 0.0769608 0.0737463 0.0724605 0.0708532 0.0692459 0.0678653 0.0668397 0.0661313 0.0650855 0.0640564 0.0633492 0.0626326 0.0615494 0.0604582 0.0597021 0.0589481 0.0581853 0.0574331 0.0566867 0.0559324 0.0551407 0.0543255 0.0534795 0.052643 0.0517564 0.0508514 0.0498963 0.0489082 0.0479493 0.0470769 0.0461823 0.0452514 0.0443751 0.0434856 0.0426824 0.041876 0.0411035 0.0403383 0.0395664 0.03865 0.037583 0.0365073 0.0353398 0.0342703 0.0331635 0.0320148 0.0309289 0.0297918 0.0288227 0.0277074 0.0267514 0.0259248 0.025087 0.0243484 0.0235554 0.0227677 0.0218698 0.0210347 0.0202151 0.0194098 0.0187066 0.0180149 0.0173913 0.0168636 0.0163321 0.0158801 0.0153941 0.0149826 0.0144289 0.0137406 0.0129431 0.0120983 0.011255 0.0103766 0.00941662 0.00841956 0.0074349 0.00643893 0.00541543 0.00452008 0.00376591 0.0029983 0.00230723 0.0016134 0.000959143 0.000298694 -0.000301903 -0.000882066 -0.00138444 -0.00177985 -0.00221969 -0.00259213 -0.00283253 -0.00309652 -0.00337082 -0.00369029 -0.0039689 -0.0042564 -0.00458918 -0.00499732 -0.00543716 -0.00588144 -0.00636036 -0.0069573 -0.0075481 -0.0081281 -0.0087184 -0.00933674 -0.00991231 -0.0104657 -0.010969 -0.0115073 -0.0120421 -0.0125918 -0.0130894 -0.0135693 -0.0140838 -0.0145743 -0.0150613 -0.015567 -0.0160383 -0.0165558 -0.0170837 -0.0176684 -0.0182154 -0.0187125 -0.0191845 -0.0196465 -0.0201044 -0.0205619 -0.0209756 -0.0213986 -0.0218145 -0.0222053 -0.0225221 -0.0228382 -0.0231275 -0.0234261 -0.0236697 -0.0238771 -0.0240878 -0.0243032 -0.024538 -0.0247592 -0.0249632 -0.0251941 -0.0254347 -0.0257623 -0.0261056 -0.0264405 -0.0268207 -0.0271978 -0.027619 -0.0280331 -0.0284477 -0.0288627 -0.0292942 -0.029722 -0.0301507 -0.030569 -0.0310357 -0.0314634 -0.0319092 -0.0323014 -0.0326668 -0.0329607 -0.0332449 -0.033468 -0.0336446 -0.0337685 -0.0338577 -0.033879 -0.0338773 -0.0338001 -0.033682 -0.033527 -0.0333815 -0.0331953 -0.0329743 -0.0326671 -0.0323982 -0.0321055 -0.0317712 -0.0311981 -0.0303717 -0.0298281 -0.0290127 -0.0279256 -0.0271102 -0.0238487
16 0.001875 0.0028125 0.0034375 0.0040625 0.0046875 0.0053125 0.0059375 0.0065625 0.0071875 0.0078125 0.0084375 0.0090625 0.0096875 0.0103125 0.0109375 0.0115625 0.0121875 0.0128125 0.0134375 0.0140625 0.0146875 0.0153125 0.0159375 0.0165625 0.0171875 0.0178125 0.0184375 0.0190625 0.0196875 0.0203125 0.0209375 0.0215625 0.0221875 0.0228125 0.0234375 0.0240625 0.0246875 0.0253125 0.0259375 0.0265625 0.0271875 0.0278125 0.0284375 0.0290625 0.0296875 0.030625 0.0315625 0.0321875 0.033125 0.0346875 0.036875 0.0415625 0.0634375
16 -0.0419728 -0.0380297 -0.035401 -0.0326792 -0.0299078 -0.0273639 -0.0247877 -0.02263 -0.0207609 -0.0196237 -0.0185837 -0.0180579 -0.0174988 -0.0168093 -0.0150797 -0.0129227 -0.0101615 -0.00670052 -0.0028993 0.000979184 0.00502979 0.00870082 0.011974 0.0150246 0.0186878 0.0224983 0.0272825 0.0331018 0.0391829 0.0449867 0.0507006 0.0574352 0.0635921 0.0711434 0.0786538 0.0866427 0.0934347 0.100308 0.107008 0.111825 0.115331 0.115013 0.110208 0.10612 0.10258 0.097029 0.0933309 0.0924757 0.0921548 0.0946009 0.0992919 0.114014 0.182716
17 0.0499375 0.062125 0.0726875 0.07675 0.08 0.0824375 0.0840625 0.0856875 0.0873125 0.0889375 0.0905625 0.0921875 0.0938125 0.0954375 0.0970625 0.0986875 0.100313 0.101938 0.103563 0.105188 0.106813 0.108438 0.110063 0.111688 0.113313 0.114938 0.116563 0.118188 0.119813 0.121438 0.123063 0.124688 0.126312 0.127937 0.129562 0.131188 0.132812 0.134437 0.136063 0.137688 0.139313 0.140937 0.142562 0.144187 0.145813 0.147437 0.149062 0.150688 0.152313 0.153938 0.155562 0.157188 0.158813 0.160438 0.162062 0.163687 0.165313 0.166938 0.168563 0.170187 0.171813 0.173438 0.175063 0.176687 0.178312 0.179938 0.181563 0.183188 0.184812 0.186438 0.188063 0.189688 0.191312 0.192938 0.194563 0.196188 0.197813 0.199437 0.201063 0.202688 0.204313 0.205938 0.207563 0.209188 0.210813 0.212438 0.214063 0.215688 0.217313 0.218938 0.220563 0.222188 0.223813 0.225438 0.227063 0.228688 0.230313 0.231938 0.233563 0.235188 0.236813 0.238438 0.240063 0.241688 0.243313 0.244938 0.246563 0.248188 0.249813 0.251438 0.253063 0.254688 0.256313 0.257938 0.259563 0.261188 0.262813 0.264438 0.266063 0.267688 0.269313 0.270938 0.272563 0.274188 0.275813 0.277438 0.279063 0.280688 0.282313 0.283938 0.285563 0.287188 0.288813 0.290438 0.292063 0.293688 0.295313 0.296938 0.298563 0.300188 0.301813 0.303438 0.305063 0.306688 0.308313 0.309938 0.311563 0.313188 0.314813 0.316438 0.318063 0.319688 0.321313 0.322938 0.324563 0.326188 0.327813 0.329438 0.331063 0.332688 0.334313 0.335938 0.337563 0.339188 0.340813 0.342438 0.344063 0.345688 0.347313 0.348938 0.350563 0.352188 0.353813 0.355438 0.357063 0.358688 0.360313 0.361938 0.363563 0.365188 0.366813 0.368438 0.370063 0.371688 0.373313 0.374938 0.376563 0.378188 0.379813 0.381438 0.383063 0.384688 0.386313 0.387938 0.389563 0.391188 0.392813 0.394438 0.396063 0.397688 0.399313 0.400938 0.402563 0.404188 0.405813 0.407438 0.409063 0.410688 0.412313 0.413938 0.415563 0.417188 0.418813 0.420438 0.422063 0.423688 0.425313 0.42775 0.430188 0.431813 0.435875 0.441563 0.448063 0.456188 0.471625
17 0.112405 0.105128 0.0988217 0.0963961 0.0944556 0.0930003 0.0920301 0.0910598 0.0900896 0.0891194 0.0881493 0.0871793 0.0862094 0.0852398 0.0842704 0.0833011 0.0823318 0.0813629 0.0803936 0.0794235 0.0784549 0.0774852 0.0765133 0.0755402 0.074568 0.0735959 0.0726252 0.0716538 0.0706805 0.0697093 0.068746 0.0677878 0.0668282 0.0658719 0.0649149 0.0639485 0.0629766 0.0620004 0.0610296 0.0600613 0.0590803 0.0580882 0.0570971 0.0561082 0.0550983 0.0540805 0.0530576 0.05203 0.0510151 0.0500066 0.0490134 0.0480071 0.0469749 0.0460026 0.0450024 0.0439688 0.0429231 0.041885 0.0408763 0.0398777 0.0388776 0.0378705 0.0368754 0.0358496 0.0348329 0.0338684 0.0328796 0.0319449 0.0310291 0.0301295 0.0292345 0.0283353 0.027423 0.0265201 0.0256358 0.0247456 0.0238995 0.0230863 0.0222438 0.0214 0.0205559 0.0197459 0.0189625 0.0182194 0.01749 0.0167883 0.0161096 0.0154511 0.0147975 0.0141309 0.0134329 0.0127924 0.012151 0.0114913 0.0108198 0.0101273 0.00938545 0.00863123 0.00789559 0.00716358 0.00643147 0.00571385 0.00498755 0.00427718 0.00352919 0.0027678 0.00202774 0.00129779 0.000579097 -0.000106755 -0.000796544 -0.00151395 -0.00223563 -0.00295495 -0.00365433 -0.00432979 -0.00497683 -0.00561794 -0.00623015 -0.006829 -0.00740462 -0.00798763 -0.0085372 -0.00905032 -0.00951293 -0.0099704 -0.0104428 -0.0109167 -0.0114027 -0.0119194 -0.0124304 -0.0129579 -0.0134914 -0.0140361 -0.0145509 -0.0150735 -0.0156296 -0.0162146 -0.0168152 -0.017411 -0.0180062 -0.0186083 -0.0191764 -0.0197795 -0.0203674 -0.020956 -0.0215398 -0.0221388 -0.0227581 -0.0233721 -0.0239693 -0.0245341 -0.0250853 -0.025608 -0.0261143 -0.0266234 -0.0270877 -0.0275568 -0.0280314 -0.0285536 -0.029099 -0.0296215 -0.0301635 -0.0307103 -0.0312754 -0.0318524 -0.0324577 -0.0330688 -0.0336896 -0.0343186 -0.034939 -0.0355487 -0.0361146 -0.0366644 -0.0372243 -0.0377627 -0.0383037 -0.038845 -0.0393871 -0.0399281 -0.0404692 -0.0410128 -0.041556 -0.0420991 -0.0426398 -0.0431797 -0.0437178 -0.0442557 -0.044793 -0.0453277 -0.0458603 -0.0463931 -0.0469323 -0.0474724 -0.0480126 -0.0485519 -0.0490934 -0.0496361 -0.05018 -0.0507272 -0.0512752 -0.0518254 -0.0523773 -0.0529303 -0.0534815 -0.0540299 -0.0545776 -0.0551268 -0.0556757 -0.0562245 -0.0567733 -0.057322 -0.0578705 -0.058419 -0.0589673 -0.0595152 -0.060063 -0.0608848 -0.0617065 -0.0622539 -0.0636225 -0.0655384 -0.067728 -0.070465 -0.0756654
17 0.0009375 0.0028125 0.0034375 0.0040625 0.0046875 0.0053125 0.0059375 0.0065625 0.0071875 0.0078125 0.0084375 0.0090625 0.0096875 0.0103125 0.0109375 0.0115625 0.0121875 0.0128125 0.0134375 0.0140625 0.0146875 0.0153125 0.0159375 0.0165625 0.0171875 0.0178125 0.0184375 0.0190625 0.0196875 0.0203125 0.0209375 0.0215625 0.0221875 0.0228125 0.0234375 0.0240625 0.0246875 0.0253125 0.0259375 0.0265625 0.0271875 0.0278125 0.0284375 0.0290625 0.0296875 0.0303125 0.0309375 0.0315625 0.0321875 0.0328125 0.0334375 0.0340625 0.035 0.03625 0.0375 0.03875 0.0403125 0.0421875 0.0440625 0.04875 0.0778125
17 -0.0471985 -0.0371099 -0.033747 -0.0304051 -0.029948 -0.0315215 -0.0327563 -0.0338042 -0.0342042 -0.0333232 -0.0301025 -0.0262824 -0.0214594 -0.0161935 -0.0103701 -0.00502739 0.000412962 0.00561479 0.0109468 0.0161137 0.0215437 0.0267014 0.0318964 0.0369888 0.0420394 0.0468865 0.0515116 0.0559921 0.0604128 0.0649076 0.0690729 0.0735035 0.0777929 0.0822607 0.0861152 0.0899097 0.0926835 0.0958989 0.0988421 0.101237 0.102906 0.105433 0.106237 0.106489 0.10787 0.109273 0.110258 0.112074 0.113758 0.115081 0.116722 0.118268 0.120577 0.123678 0.126821 0.129969 0.133904 0.138625 0.143347 0.155151 0.228337
18 0.0353125 0.054 0.0613125 0.065375 0.07025 0.075125 0.078375 0.0808125 0.0824375 0.0840625 0.0865 0.08975 0.0921875 0.0938125 0.0954375 0.0970625 0.0986875 0.100313 0.101938 0.103563 0.105188 0.106813 0.108438 0.110063 0.111688 0.113313 0.114938 0.116563 0.118188 0.119813 0.121438 0.123063 0.124688 0.126312 0.127937 0.129562 0.131188 0.132812 0.134437 0.136063 0.137688 0.139313 0.140937 0.142562 0.144187 0.145813 0.147437 0.149062 0.150688 0.152313 0.153938 0.155562 0.157188 0.158813 0.160438 0.162062 0.163687 0.165313 0.166938 0.168563 0.170187 0.171813 0.173438 0.175063 0.176687 0.178312 0.179938 0.181563 0.183188 0.184812 0.186438 0.188063 0.189688 0.191312 0.192938 0.194563 0.196188 0.197813 0.199437 0.201063 0.202688 0.204313 0.205938 0.207563 0.209188 0.210813 0.212438 0.214063 0.215688 0.217313 0.218938 0.220563 0.222188 0.223813 0.225438 0.227063 0.228688 0.230313 0.231938 0.233563 0.235188 0.236813 0.238438 0.240063 0.241688 0.243313 0.244938 0.246563 0.248188 0.249813 0.251438 0.253063 0.254688 0.256313 0.257938 0.259563 0.261188 0.262813 0.264438 0.266063 0.267688 0.269313 0.270938 0.272563 0.274188 0.275813 0.277438 0.279063 0.280688 0.282313 0.283938 0.285563 0.287188 0.288813 0.290438 0.292063 0.293688 0.295313 0.296938 0.298563 0.300188 0.301813 0.303438 0.305063 0.306688 0.308313 0.309938 0.311563 0.313188 0.314813 0.316438 0.318063 0.319688 0.321313 0.322938 0.324563 0.326188 0.327813 0.329438 0.331063 0.332688 0.334313 0.335938 0.337563 0.339188 0.340813 0.342438 0.344063 0.345688 0.347313 0.348938 0.350563 0.352188 0.353813 0.355438 0.357063 0.358688 0.360313 0.361938 0.363563 0.365188 0.366813 0.368438 0.370063 0.371688 0.373313 0.374938 0.376563 0.378188 0.379813 0.381438 0.383063 0.384688 0.386313 0.387938 0.389563 0.391188 0.392813 0.394438 0.396063 0.397688 0.399313 0.400938 0.402563 0.404188 0.405813 0.407438 0.409063 0.410688 0.412313 0.413938 0.415563 0.417188 0.418813 0.420438 0.422063 0.423688 0.425313 0.426938 0.428563 0.430188 0.431813 0.433438 0.435063 0.436688 0.438313 0.439938 0.441563 0.443188 0.444813 0.446438 0.448063 0.449688 0.451313 0.452938 0.454563 0.456188 0.457813 0.459437 0.461063 0.462688 0.464313 0.465938 0.468375 0.470813 0.472438 0.474062 0.4765 0.480563 0.485438 0.497625
18 0.111592 0.102747 0.0992856 0.0973626 0.0950551 0.0927476 0.0912092 0.090056 0.0892873 0.0885188 0.087366 0.0858298 0.0846786 0.0839111 0.0831442 0.0823773 0.0816102 0.0808431 0.0800754 0.0793078 0.0785411 0.0777687 0.0769959 0.0762233 0.0754504 0.0746798 0.0739086 0.0731368 0.0723655 0.0715926 0.0708203 0.0700498 0.0692772 0.0685056 0.0677331 0.0669616 0.0661871 0.0654187 0.0646457 0.0638694 0.0630921 0.0623104 0.0615298 0.0607479 0.0599679 0.0591927 0.058411 0.0576336 0.0568544 0.0560728 0.0552832 0.054503 0.053721 0.0529453 0.052174 0.0514031 0.0506319 0.0498568 0.049084 0.0482512 0.0474194 0.0466015 0.0457846 0.0450067 0.0442352 0.0434718 0.0427147 0.041948 0.0411968 0.0404654 0.0397209 0.0389869 0.0382914 0.0375945 0.0368818 0.0362138 0.0355053 0.0347719 0.0340353 0.0332827 0.0325381 0.0317748 0.0310033 0.03026 0.0294862 0.0287326 0.0279932 0.0272439 0.026457 0.0257019 0.0249429 0.0242092 0.023508 0.0228002 0.022103 0.0214018 0.0206959 0.0200116 0.0193436 0.0186724 0.0180438 0.0174148 0.016786 0.0161703 0.0155419 0.0148842 0.0142576 0.0136268 0.0130084 0.0123888 0.0117917 0.0111817 0.010576 0.00994972 0.00933925 0.00871701 0.00811981 0.00750355 0.00691199 0.00632442 0.00574958 0.00517495 0.00460366 0.00402083 0.00343845 0.00286233 0.00228128 0.00170232 0.00112506 0.000527135 -5.22204e-05 -0.000645692 -0.00126047 -0.0018925 -0.00252718 -0.00315206 -0.00378626 -0.00440107 -0.00502246 -0.00562306 -0.00623322 -0.00684823 -0.00744493 -0.00803754 -0.00861929 -0.00916263 -0.00967205 -0.0101761 -0.0107091 -0.0112155 -0.0117178 -0.0121937 -0.0126677 -0.0131381 -0.0136185 -0.0140784 -0.0145158 -0.0149425 -0.0153886 -0.0158432 -0.0163032 -0.016735 -0.0171694 -0.017625 -0.0180953 -0.0185628 -0.0190188 -0.0194868 -0.0199599 -0.0204833 -0.0209926 -0.0214896 -0.0220063 -0.0225092 -0.0230219 -0.0235333 -0.0240645 -0.0245883 -0.0251215 -0.0256306 -0.0260942 -0.0265771 -0.0270279 -0.0274855 -0.0279512 -0.0283839 -0.0288328 -0.0292686 -0.0297067 -0.030103 -0.0304951 -0.0308865 -0.0313036 -0.0317236 -0.0321287 -0.0325373 -0.0329539 -0.0333734 -0.033796 -0.034212 -0.0346279 -0.0350495 -0.0354743 -0.0359007 -0.0363257 -0.036751 -0.0371788 -0.037617 -0.0380536 -0.038489 -0.0389296 -0.0393699 -0.0398117 -0.0402538 -0.0406956 -0.0411368 -0.0415782 -0.0420179 -0.0424532 -0.0428903 -0.043324 -0.0437591 -0.0441954 -0.0446271 -0.0450602 -0.0454923 -0.0459245 -0.0463534 -0.046783 -0.0472123 -0.0476431 -0.0480748 -0.0485058 -0.0489353 -0.0493653 -0.0497948 -0.0502242 -0.0506532 -0.051082 -0.051511 -0.0519397 -0.0523687 -0.0527976 -0.0534409 -0.0540846 -0.0545139 -0.0549432 -0.0555871 -0.0566604 -0.0579483 -0.061168
18 0.0009375 0.0028125 0.0034375 0.0040625 0.0046875 0.0053125 0.0059375 0.0065625 0.0071875 0.0078125 0.0084375 0.0090625 0.0096875 0.0103125 0.0109375 0.0115625 0.0121875 0.0128125 0.0134375 0.0140625 0.0146875 0.0153125 0.0159375 0.0165625 0.0171875 0.0178125 0.0184375 0.0190625 0.0196875 0.0203125 0.0209375 0.0215625 0.0221875 0.0228125 0.0234375 0.0240625 0.0246875 0.0253125 0.0259375 0.0265625 0.0271875 0.0278125 0.0284375 0.0290625 0.0296875 0.0303125 0.0309375 0.0315625 0.0321875 0.0328125 0.0334375 0.0340625 0.0346875 0.0353125 0.0359375 0.0365625 0.0371875 0.0378125 0.0384375 0.0390625 0.0396875 0.040625 0.0415625 0.0421875 0.043125 0.044375 0.045625 0.046875 0.0484375 0.050625 0.0534375 0.05625 0.059375 0.0990625
18 -0.093071 -0.078874 -0.0741416 -0.0694082 -0.0646746 -0.0599474 -0.0552765 -0.0506159 -0.0459368 -0.0412703 -0.0366596 -0.0320069 -0.0274055 -0.0227003 -0.0180256 -0.0131639 -0.00817012 -0.00300621 0.00209261 0.00726207 0.0122895 0.0172208 0.0219286 0.0264247 0.0308063 0.0353939 0.0398297 0.0441094 0.0482835 0.0524196 0.0561289 0.059717 0.0635004 0.0676755 0.0714094 0.0758294 0.0803111 0.0847258 0.0889413 0.0934476 0.0967443 0.0992234 0.101457 0.103133 0.104083 0.105172 0.10677 0.108003 0.111414 0.115051 0.119843 0.124673 0.12694 0.128564 0.130242 0.130818 0.131316 0.132544 0.133974 0.134258 0.135434 0.138258 0.140499 0.140623 0.143534 0.144482 0.145083 0.147633 0.150506 0.155877 0.163064 0.170159 0.178108 0.279068
19 -0.0004375 0.0158125 0.0336875 0.0385625 0.042625 0.045875 0.0499375 0.054 0.0564375 0.058875 0.0613125 0.0629375 0.0645625 0.0661875 0.0678125 0.0694375 0.0710625 0.0726875 0.0743125 0.0759375 0.0775625 0.0791875 0.0808125 0.0824375 0.0840625 0.0856875 0.0873125 0.0889375 0.0905625 0.0921875 0.0938125 0.0954375 0.0970625 0.0986875 0.100313 0.101938 0.103563 0.105188 0.106813 0.108438 0.110063 0.111688 0.113313 0.114938 0.116563 0.118188 0.119813 0.121438 0.123063 0.124688 0.126312 0.127937 0.129562 0.131188 0.132812 0.134437 0.136063 0.137688 0.139313 0.140937 0.142562 0.144187 0.145813 0.147437 0.149062 0.150688 0.152313 0.153938 0.155562 0.157188 0.158813 0.160438 0.162062 0.163687 0.165313 0.166938 0.168563 0.170187 0.171813 0.173438 0.175063 0.176687 0.178312 0.179938 0.181563 0.183188 0.184812 0.186438 0.188063 0.189688 0.191312 0.192938 0.194563 0.196188 0.197813 0.199437 0.201063 0.202688 0.204313 0.205938 0.207563 0.209188 0.210813 0.212438 0.214063 0.215688 0.217313 0.218938 0.220563 0.222188 0.223813 0.225438 0.227063 0.228688 0.230313 0.231938 0.233563 0.235188 0.236813 0.238438 0.240063 0.241688 0.243313 0.244938 0.246563 0.248188 0.249813 0.251438 0.253063 0.254688 0.256313 0.257938 0.259563 0.261188 0.262813 0.264438 0.266063 0.267688 0.269313 0.270938 0.272563 0.274188 0.275813 0.277438 0.279063 0.280688 0.282313 0.283938 0.285563 0.287188 0.288813 0.290438 0.292063 0.293688 0.295313 0.296938 0.298563 0.300188 0.301813 0.303438 0.305063 0.306688 0.308313 0.309938 0.311563 0.313188 0.314813 0.316438 0.318063 0.319688 0.321313 0.322938 0.324563 0.326188 0.327813 0.329438 0.331063 0.332688 0.334313 0.335938 0.337563 0.339188 0.340813 0.342438 0.344063 0.345688 0.347313 0.348938 0.350563 0.352188 0.353813 0.355438 0.357063 0.358688 0.360313 0.361938 0.363563 0.365188 0.366813 0.368438 0.370063 0.371688 0.373313 0.374938 0.376563 0.378188 0.379813 0.381438 0.383063 0.384688 0.386313 0.387938 0.389563 0.391188 0.392813 0.394438 0.396063 0.397688 0.399313 0.400938 0.402563 0.404188 0.405813 0.407438 0.409063 0.410688 0.412313 0.413938 0.415563 0.417188 0.418813 0.420438 0.422063 0.423688 0.425313 0.426938 0.428563 0.430188 0.431813 0.433438 0.435063 0.436688 0.438313 0.439938 0.441563 0.443188 0.444813 0.446438 0.448063 0.449688 0.451313 0.452938 0.454563 0.456188 0.457813 0.459437 0.461063 0.462688 0.464313 0.465938 0.467563 0.47 0.472438 0.474875 0.477313 0.47975 0.491938
19 0.114351 0.109025 0.103166 0.101569 0.100237 0.099172 0.0978405 0.096509 0.095675 0.0947621 0.0938456 0.0931927 0.0925534 0.0919179 0.091251 0.0905777 0.0898963 0.0892151 0.0885355 0.0878393 0.0871405 0.0864663 0.0857953 0.0851179 0.0844359 0.0837442 0.0830427 0.0823108 0.0815807 0.0808256 0.0800794 0.0793335 0.0785645 0.0777808 0.0769854 0.0762199 0.0753677 0.0745093 0.0736494 0.0727866 0.0719247 0.0710632 0.0702092 0.0693537 0.0684996 0.067649 0.0667891 0.0659328 0.0650806 0.064233 0.0633899 0.0625487 0.0617083 0.060871 0.0600384 0.0592079 0.0583795 0.0575515 0.0567193 0.0558879 0.0550571 0.0543249 0.053599 0.0528762 0.0521401 0.0513999 0.0506491 0.0498872 0.0491295 0.0483709 0.0475897 0.0468298 0.04606 0.0452859 0.0444977 0.0436937 0.0427879 0.0418738 0.0409486 0.0399999 0.0390637 0.0381269 0.0372069 0.0363004 0.03538 0.0344741 0.0335255 0.0325971 0.0316808 0.0307521 0.0298428 0.0289588 0.0280686 0.0271838 0.0263405 0.0254915 0.0246437 0.0238073 0.0229254 0.0220502 0.0211643 0.0202737 0.0193603 0.0184392 0.0175399 0.0166291 0.0156984 0.0147702 0.0138475 0.0129086 0.0119777 0.0110491 0.0101193 0.0092096 0.0083177 0.00743467 0.00656122 0.00568759 0.00481979 0.00394649 0.00308071 0.00222384 0.00137456 0.000523087 -0.000330784 -0.0011959 -0.00205478 -0.00292663 -0.00377974 -0.00463948 -0.00550772 -0.00637291 -0.0072112 -0.00806616 -0.00890589 -0.00973335 -0.0105487 -0.011366 -0.012183 -0.0130029 -0.0138266 -0.0146542 -0.0154679 -0.016293 -0.0171218 -0.0179456 -0.0187527 -0.0195587 -0.0203572 -0.0211653 -0.0219881 -0.0228242 -0.0236546 -0.0244851 -0.0253209 -0.0261453 -0.026964 -0.0277841 -0.0285673 -0.0293523 -0.0300972 -0.0308473 -0.0315985 -0.0323319 -0.0330636 -0.0337921 -0.0345024 -0.0351961 -0.0358856 -0.0365502 -0.0372127 -0.0378683 -0.038515 -0.0391849 -0.0398352 -0.0405147 -0.0411756 -0.0418517 -0.0425412 -0.043221 -0.0438821 -0.044534 -0.0452412 -0.0459403 -0.0466541 -0.0473677 -0.0480794 -0.0488006 -0.0495114 -0.0502292 -0.0509288 -0.0516275 -0.0523237 -0.0530034 -0.0536838 -0.0543782 -0.0550823 -0.0557435 -0.0564 -0.0570397 -0.0576754 -0.0583144 -0.0589511 -0.0595992 -0.0602458 -0.0609025 -0.0615673 -0.0622179 -0.0628686 -0.0635199 -0.0641719 -0.0648251 -0.06548 -0.0661373 -0.0667946 -0.0674533 -0.0681115 -0.0687693 -0.0694271 -0.0700848 -0.0707421 -0.0713995 -0.0720571 -0.0727145 -0.0733719 -0.0740292 -0.0746865 -0.0753437 -0.076001 -0.0766583 -0.0773155 -0.0779728 -0.07863 -0.0792873 -0.0799446 -0.0806018 -0.0812591 -0.0819164 -0.0825736 -0.0832309 -0.0838882 -0.0845454 -0.0852027 -0.08586 -0.0865172 -0.0871745 -0.0878317 -0.088489 -0.0891463 -0.0898035 -0.0904608 -0.0911181 -0.0917753 -0.0924326 -0.0930899 -0.0937471 -0.0944044 -0.0950617 -0.0957189 -0.0963762 -0.0970334 -0.0980193 -0.0990052 -0.0999911 -0.100977 -0.101963 -0.106892
19 0.0015625 0.0040625 0.0046875 0.0053125 0.0059375 0.0065625 0.0071875 0.0078125 0.0084375 0.0090625 0.0096875 0.0103125 0.0109375 0.0115625 0.0121875 0.0128125 0.0134375 0.0140625 0.0146875 0.0153125 0.0159375 0.0165625 0.0171875 0.0178125 0.0184375 0.0190625 0.0196875 0.0203125 0.0209375 0.0215625 0.0221875 0.0228125 0.0234375 0.0240625 0.0246875 0.0253125 0.0259375 0.0265625 0.0271875 0.0278125 0.0284375 0.0290625 0.0296875 0.0303125 0.0309375 0.0315625 0.0321875 0.0328125 0.0334375 0.0340625 0.0346875 0.0353125 0.0359375 0.0365625 0.0371875 0.0378125 0.0384375 0.0390625 0.0396875 0.0403125 0.0409375 0.0415625 0.0421875 0.0428125 0.0434375 0.0440625 0.0446875 0.0453125 0.0459375 0.0465625 0.0471875 0.0478125 0.0484375 0.0490625 0.0496875 0.0503125 0.0509375 0.0515625 0.0521875 0.0528125 0.0534375 0.0540625 0.0546875 0.0553125 0.0559375 0.0565625 0.0571875 0.0578125 0.0584375 0.0590625 0.0596875 0.0603125 0.0609375 0.0615625 0.0621875 0.0628125 0.0634375 0.0640625 0.065 0.0659375 0.0665625 0.0671875 0.068125 0.069375 0.0703125 0.07125 0.0728125 0.074375 0.07625 0.07875 0.0809375 0.0834375 0.08625 0.0896875 0.0940625 0.098125 0.101875 0.105938 0.111562 0.120312 0.152812
19 -0.0953829 -0.0839857 -0.0811364 -0.0782871 -0.0754086 -0.0723586 -0.0692459 -0.0660578 -0.0628124 -0.0596024 -0.0565204 -0.0533437 -0.0500695 -0.0466565 -0.0430495 -0.0393068 -0.0351874 -0.0306761 -0.0260308 -0.0211817 -0.0162034 -0.0112375 -0.00625861 -0.00174857 0.00252961 0.00641659 0.00983085 0.0127398 0.0153238 0.0175093 0.0197637 0.021815 0.0238257 0.0257488 0.0276703 0.0296161 0.0317057 0.0337665 0.0357386 0.0379484 0.0403149 0.0427433 0.0452747 0.0479643 0.0506713 0.0537203 0.0566679 0.0598466 0.0631663 0.0663931 0.0696157 0.0726638 0.0755104 0.0783204 0.0810407 0.0835201 0.0860929 0.0885189 0.0910936 0.0936176 0.0960833 0.0984359 0.10088 0.102874 0.104807 0.107011 0.109108 0.11117 0.113204 0.11479 0.116565 0.118139 0.119742 0.121155 0.122677 0.123917 0.126549 0.129281 0.13191 0.134207 0.136851 0.13931 0.141564 0.143419 0.145554 0.147895 0.149625 0.151456 0.153199 0.154623 0.155556 0.156245 0.157594 0.158385 0.159728 0.161129 0.16253 0.163936 0.166041 0.167854 0.169134 0.170285 0.172538 0.174965 0.177309 0.179339 0.18301 0.186657 0.19081 0.196453 0.201111 0.206489 0.212756 0.220457 0.230366 0.241504 0.249934 0.26301 0.261849 0.260043 0.253336
20 0
20 0
20 0.00625 0.009375 0.0115625 0.013125 0.0140625 0.0146875 0.0153125 0.0159375 0.0165625 0.0171875 0.0178125 0.0184375 0.0190625 0.0196875 0.0203125 0.0209375 0.0215625 0.0221875 0.0228125 0.0234375 0.0240625 0.0246875 0.0253125 0.0259375 0.0265625 0.0271875 0.0278125 0.0284375 0.0290625 0.0296875 0.0303125 0.0309375 0.0315625 0.0321875 0.0328125 0.0334375 0.0340625 0.0346875 0.0353125 0.0359375 0.0365625 0.0371875 0.0378125 0.0384375 0.0390625 0.0396875 0.0403125 0.0409375 0.0415625 0.0421875 0.0428125 0.0434375 0.0440625 0.0446875 0.0453125 0.0459375 0.0465625 0.0471875 0.0478125 0.0484375 0.0490625 0.0496875 0.0503125 0.0509375 0.0515625 0.0521875 0.0528125 0.0534375 0.0540625 0.0546875 0.0553125 0.0559375 0.0565625 0.0571875 0.0578125 0.0584375 0.0590625 0.0596875 0.060625 0.0615625 0.0621875 0.0628125 0.0634375 0.0640625 0.0646875 0.0653125 0.06625 0.0671875 0.06875 0.070625 0.071875 0.073125 0.0753125 0.0775 0.0796875 0.08375 0.0934375 0.105625 0.12 0.146562
20 -0.0242815 -0.0218429 -0.0201359 -0.0189166 -0.0182303 -0.017928 -0.0177364 -0.0174676 -0.0165767 -0.0157 -0.0145857 -0.0132002 -0.0121476 -0.0111778 -0.0101975 -0.00975524 -0.00917053 -0.00849329 -0.00781917 -0.0062277 -0.00404913 -0.00176665 0.000866401 0.00348439 0.00663229 0.00973302 0.0122718 0.0145876 0.0166753 0.0184155 0.0198461 0.0203102 0.0206145 0.021209 0.0211275 0.0207269 0.0198165 0.0189373 0.018014 0.0165363 0.0147212 0.0128287 0.0107435 0.00874686 0.00635658 0.00395756 0.000784028 -0.00282838 -0.00611047 -0.0092728 -0.0117951 -0.0140545 -0.0162164 -0.0179278 -0.0193559 -0.0205175 -0.0212593 -0.0215624 -0.0216377 -0.0206815 -0.0185211 -0.0158382 -0.012784 -0.00956239 -0.00654773 -0.00307421 0.000554037 0.00413291 0.00729419 0.0105326 0.0139049 0.0178187 0.0215983 0.0252987 0.0289241 0.0329786 0.0368408 0.0408167 0.0460038 0.0509323 0.0542849 0.0576095 0.0609675 0.0643039 0.0676562 0.0710477 0.076053 0.0810762 0.0894883 0.099589 0.106356 0.113214 0.125464 0.138242 0.151384 0.17417 0.234824 0.313541 0.406387 0.57795
21 0
21 0
21 0.008125 0.0090625 0.01 0.0115625 0.013125 0.0140625 0.0146875 0.0153125 0.0159375 0.0165625 0.0171875 0.0178125 0.0184375 0.0190625 0.0196875 0.0203125 0.0209375 0.0215625 0.0221875 0.0228125 0.0234375 0.0240625 0.0246875 0.0253125 0.0259375 0.0265625 0.0271875 0.0278125 0.0284375 0.0290625 0.0296875 0.0303125 0.0309375 0.0315625 0.0321875 0.0328125 0.0334375 0.0340625 0.0346875 0.0353125 0.0359375 0.0365625 0.0371875 0.0378125 0.0384375 0.0390625 0.0396875 0.0403125 0.0409375 0.0415625 0.0421875 0.0428125 0.0434375 0.0440625 0.0446875 0.0453125 0.0459375 0.0465625 0.0471875 0.0478125 0.0484375 0.0490625 0.0496875 0.0503125 0.0509375 0.0515625 0.0521875 0.0528125 0.0534375 0.0540625 0.0546875 0.0553125 0.0559375 0.0565625 0.0571875 0.0578125 0.0584375 0.0590625 0.0596875 0.0603125 0.0609375 0.0615625 0.0621875 0.0628125 0.06375 0.0646875 0.0653125 0.06625 0.0675 0.0684375 0.0703125 0.0725 0.0759375 0.08 0.085 0.0903125 0.094375 0.104375 0.149688
21 -0.042848 -0.0405728 -0.0382976 -0.0349263 -0.0318373 -0.0301979 -0.0291979 -0.0284538 -0.0276596 -0.0264286 -0.0244675 -0.0230771 -0.0218225 -0.0203065 -0.0189332 -0.017727 -0.0157157 -0.0130736 -0.0104579 -0.00837451 -0.00551758 -0.00239558 0.000788058 0.00428504 0.00841755 0.0123796 0.015834 0.0192464 0.0225045 0.0247783 0.0266821 0.0287133 0.0298525 0.0306111 0.0310768 0.0308899 0.0306316 0.0302809 0.0292704 0.0280272 0.0270333 0.0251082 0.0227516 0.0192986 0.0157583 0.0112394 0.00622223 0.00169004 -0.00241115 -0.00691775 -0.0117545 -0.0164347 -0.0214206 -0.0253674 -0.0279045 -0.0291847 -0.0289933 -0.0284977 -0.0282171 -0.0268305 -0.0248154 -0.0216547 -0.0167754 -0.0117406 -0.00581147 3.4497e-05 0.00461175 0.00945634 0.0149321 0.0194557 0.0245142 0.0287913 0.0334954 0.0378578 0.0413568 0.0442888 0.0473867 0.0497925 0.0519651 0.0544213 0.0570624 0.0596976 0.0627253 0.0658232 0.0709683 0.0760408 0.0796536 0.0849539 0.0920029 0.0971756 0.107735 0.119241 0.136795 0.157639 0.181892 0.206864 0.220706 0.255002 0.410407
