0 0.00468502
1 0.0720778
2 -0.0481258
3 -0.0799424
4 -0.132511
5 -0.00135666
6 -0.174947
7 0.0127374
8 -0.0622796
9 0.0607136
10 -0.0987651
11 -0.149124
12 -0.248989
13 -0.000534928
14 0.0528491
15 -0.118343
16 -0.0102383
17 0.0429877
18 0.0401052
19 -0.16384
20 0.0436203
21 -0.05627
22 0.0126231
23 -0.121519
24 -0.000645161
25 -0.0425745
26 -0.199893
27 -0.0052375
28 -0.187245
29 -0.130325
30 0.0300396
31 0.00204678
32 -0.142228
33 -0.136061
34 0.0216901
35 -0.0454751
36 -0.054827
37 -0.0370689
38 0.0900706
39 -0.065657
40 -0.167967
41 -0.0580243
42 -0.107906
43 -0.0280638
44 -0.43719
45 -0.0469465
46 -0.194753
47 0.0835006
48 0.0339519
49 -0.166919
50 0.0403119
51 -0.0121494
52 -0.137314
53 0.0435738
54 -0.0654153
55 0.0976132
56 -0.193452
57 -0.114788
58 0.125476
59 -0.185778
60 0.0224081
61 0.0245309
62 -0.158118
63 -0.0594104
64 0.20897
65 0.356721
66 0.123298
67 0.251735
68 0.261914
69 0.0416462
70 0.186163
71 0.181861
72 0.413231
73 -0.0203915
74 0.489781
75 0.114558
76 1.96846
77 0.143591
78 0.313729
79 0.313617
80 0.193154
81 0.180984
82 -0.330324
83 0.245252
84 0.184694
85 -0.0764764
86 0.133155
87 0.241903
88 0.315909
89 0.195492
90 0.255174
91 0.292348
92 0.12562
93 0.24888
94 0.352579
95 0.222057
96 0.227712
97 -0.202543
98 -0.0588667
99 0.0817885
100 0.234527
101 0.0696097
102 -0.0237076
103 -0.0300342
104 0.175644
105 0.0853484
106 -0.0136794
107 0.362227
108 -0.250978
109 -0.0202836
110 0.119961
111 -0.276811
112 -0.312029
113 0.209864
114 0.0653022
115 0.191567
116 0.0517337
117 0.0968277
118 0.0082971
119 -0.259065
120 0.243996
121 0.290932
122 -0.146703
123 0.0759179
124 0.412
125 -0.00365258
126 0.0581818
127 -0.0888386
128 0.0131896
129 0.329086
130 0.0710077
131 -0.0613366
132 -0.168077
133 0.207358
134 -0.197406
135 0.0505096
136 -0.114289
137 -0.388614
138 -0.286119
139 -0.0632376
140 -0.261842
141 -0.193793
142 0.00487411
143 0.186898
144 -0.0314461
145 0.157545
146 -0.0558514
147 -0.000950683
148 -0.27563
149 -0.0338196
150 0.0358272
151 -0.0534709
152 -0.0186876
153 0.173651
154 -0.151925
155 -0.1901
156 -0.174643
157 -0.0671757
158 -0.150258
159 0.0521872
160 -0.120975
161 -0.307535
162 -0.0598918
163 -0.111172
164 -0.0305303
165 -0.213012
166 -0.0475234
167 -0.275645
168 -0.0966804
169 0.164479
170 0.123981
171 -0.0984282
172 0.1811
173 -0.0294551
174 -0.111876
175 -0.120349
176 -0.225274
177 -0.209338
178 0.0389978
179 -0.121222
180 0.150989
181 -0.0651215
182 -0.130916
183 -0.00827273
184 -0.247921
185 -0.277986
186 0.0279426
187 0.215051
188 -0.0771556
189 0.19381
190 0.143582
191 -0.265819
192 0.246621
193 0.0830652
194 0.13459
195 0.171742
196 0.265784
197 0.0113035
198 0.665031
199 0.48037
200 0.423791
201 0.22481
202 0.384925
203 0.154697
204 0.136137
205 0.384148
206 0.198204
207 -0.092956
208 0.611024
209 0.244728
210 0.228047
211 0.214655
212 0.13884
213 0.345587
214 0.27484
215 0.0109023
216 0.466057
217 0.227414
218 0.363072
219 -0.0916035
220 0.392918
221 -0.166967
222 -0.10207
223 0.367784
224 0.0859048
225 0.0151811
226 -0.129964
227 0.335055
228 0.269982
229 0.084389
230 -0.0572542
231 0.195717
232 -0.0293518
233 0.18595
234 0.00183486
235 0.444503
236 -0.059464
237 0.144258
238 0.13
239 -0.0524415
240 0.14244
241 -0.037308
242 -0.279198
243 0.183458
244 0.30368
245 -0.0335055
246 0.251148
247 0.245646
248 0.278372
249 0.240505
250 -0.125714
251 -0.0506117
252 0.243556
253 -0.168358
254 0.0963688
255 0.362743
256 -99999
257 -99999
258 -99999
259 -99999
260 -99999
261 -99999
262 -99999
263 -99999
264 -99999
265 -99999
266 -99999
267 -99999
268 -99999
269 -99999
270 -99999
271 -99999
272 -99999
273 -99999
274 -99999
275 -99999
276 -99999
277 -99999
278 -99999
279 -99999
280 -99999
281 -99999
282 -99999
283 -99999
284 -99999
285 -99999
286 -99999
287 -99999
288 -99999
289 -99999
290 -99999
291 -99999
292 -99999
293 -99999
294 -99999
295 -99999
296 -99999
297 -99999
298 -99999
299 -99999
300 -99999
301 -99999
302 -99999
303 -99999
304 -99999
305 -99999
306 -99999
307 -99999
308 -99999
309 -99999
310 -99999
311 -99999
312 -99999
313 -99999
314 -99999
315 -99999
316 -99999
317 -99999
318 -99999
319 -99999
320 0.127505
321 0.0282783
322 1.33504
323 -99999
324 0.149211
325 0.141467
326 -99999
327 0.14189
328 0.190443
329 0.711745
330 -99999
331 -0.0100109
332 0.0570277
333 -0.295795
334 0.377465
335 1.31896
336 -99999
337 -0.0698996
338 0.128459
339 -0.0787097
340 -0.15814
341 0.987002
342 -99999
343 0.263256
344 0.0632033
345 0.134311
346 -0.341094
347 0.916531
348 -99999
349 -0.0103989
350 -0.115221
351 -99999
352 -0.14596
353 0.171313
354 0.894905
355 -99999
356 0.0978434
357 0.283168
358 0.236488
359 -0.129582
360 0.972974
361 -99999
362 0.249178
363 -0.0169653
364 0.271912
365 0.160385
366 1.12037
367 -99999
368 0.226854
369 0.163532
370 -0.0532774
371 0.268252
372 -99999
373 -99999
374 0.0557299
375 0.222515
376 -99999
377 0.131304
378 -0.152854
379 -99999
380 -99999
381 0.165431
382 0.0980143
383 0.25124
384 0.213326
385 -99999
386 -99999
387 0.0929653
388 -0.0588634
389 -0.124666
390 0.118878
391 -99999
392 -99999
393 0.0482944
394 0.0363826
395 -0.103078
396 -0.0484583
397 -99999
398 -99999
399 -0.0898779
400 -0.180637
401 -99999
402 -0.0718059
403 -0.00941926
404 -99999
405 -99999
406 -0.217335
407 -0.310878
408 -0.353497
409 -0.191028
410 -99999
411 -99999
412 -0.236831
413 0.044088
414 -0.0457978
415 -0.186459
416 -99999
417 -99999
418 -0.259699
419 -0.174829
420 -99999
421 -99999
422 -0.271365
423 -99999
424 -99999
425 -99999
426 -99999
427 -99999
428 -99999
429 -0.0221597
430 -99999
431 -99999
432 -99999
433 -99999
434 -99999
435 0.00253078
436 -99999
437 -99999
438 -99999
439 -99999
440 -99999
441 -0.145435
442 -99999
443 -99999
444 -99999
445 -99999
446 -99999
447 -0.298095
448 -99999
449 -99999
450 -99999
451 -99999
452 -99999
453 -99999
454 -0.342435
455 -99999
456 -99999
457 -99999
458 -99999
459 -99999
460 -0.478578
461 -99999
462 -99999
463 -99999
464 -99999
465 -99999
466 -0.265249
467 -99999
468 -99999
469 -99999
470 0.13338
471 -0.0348412
472 0.774939
473 -99999
474 0.0937235
475 0.0913584
476 -99999
477 -0.0383251
478 0.0881241
479 0.93799
480 -99999
481 0.218528
482 0.0520916
483 0.0118416
484 0.30976
485 0.997091
486 -99999
487 -0.236416
488 -0.138774
489 -0.11177
490 -0.0365383
491 1.55367
492 -99999
493 0.0128982
494 -0.270548
495 0.145917
496 0.0588994
497 0.776012
498 -99999
499 0.00561287
500 0.200751
501 -99999
502 0.135671
503 0.0169119
504 0.991727
505 -99999
506 -0.0967312
507 0.106639
508 -0.162085
509 0.236987
510 1.03738
511 -99999
512 0.193243
513 -0.0976362
514 0.243744
515 0.0276343
516 1.57807
517 -99999
518 0.299018
519 0.226121
520 0.127409
521 0.0264133
522 -99999
523 -99999
524 0.00405532
525 0.22416
526 -99999
527 0.147061
528 0.0441178
529 -99999
530 -99999
531 0.194351
532 0.120087
533 0.299531
534 -0.00678905
535 -99999
536 -99999
537 0.0874535
538 0.113698
539 -0.00103881
540 -0.211961
541 -99999
542 -99999
543 0.133726
544 -0.0494669
545 -0.231958
546 -0.0517923
547 -99999
548 -99999
549 -0.0343158
550 -0.437347
551 -99999
552 -0.25867
553 -0.0936671
554 -99999
555 -99999
556 -0.191652
557 -0.212637
558 -0.209296
559 -0.22461
560 -99999
561 -99999
562 -0.164122
563 -0.0138036
564 -0.158685
565 0.184594
566 -99999
567 -99999
568 -0.302191
569 -0.0185807
570 -99999
571 -99999
572 0.0563631
573 -99999
574 -99999
575 -99999
576 -99999
577 -99999
578 -99999
579 -0.30524
580 -99999
581 -99999
582 -99999
583 -99999
584 -99999
585 -0.484794
586 -99999
587 -99999
588 -99999
589 -99999
590 -99999
591 -0.0793575
592 -99999
593 -99999
594 -99999
595 -99999
596 -99999
597 -0.488221
598 -99999
599 -99999
600 -99999
601 -99999
602 -99999
603 -99999
604 -0.295568
605 -99999
606 -99999
607 -99999
608 -99999
609 -99999
610 -0.0855051
611 -99999
612 -99999
613 -99999
614 -99999
615 -99999
616 -0.701997
617 -99999
618 -99999
619 -99999
